composition_id;product_id
1;35
1;36
1;56
1;93
1;121
1;4
1;6
1;76
1;37
1;32
1;15
1;77
1;85
1;39
1;33
1;41
1;21
1;25
1;24
1;44
1;59
1;104
1;107
1;194
1;112
1;115
1;116
1;119
1;129
1;130
2;176
2;357
2;89
2;36
2;139
2;122
2;126
2;127
2;131
2;134
2;133
2;138
2;143
2;147
2;149
2;152
2;154
2;156
2;160
2;162
2;163
2;166
2;170
2;172
2;178
2;192
2;193
2;194
2;81
2;98
3;61
3;86
3;93
3;121
3;377
3;201
3;202
3;206
3;207
3;208
3;212
3;221
3;223
3;230
3;231
3;232
3;235
3;237
3;238
3;250
3;253
3;262
3;263
3;266
3;270
3;278
3;286
3;290
3;296
3;302
4;176
4;300
4;68
4;37
4;35
4;114
4;309
4;310
4;311
4;314
4;317
4;318
4;319
4;322
4;329
4;330
4;331
4;333
4;340
4;344
4;347
4;349
4;353
4;358
4;359
4;364
4;368
4;370
4;376
4;379
5;357
5;89
5;93
5;60
5;56
5;380
5;381
5;383
5;394
5;395
5;399
5;400
5;1
5;2
5;3
5;11
5;13
5;14
5;16
5;18
5;22
5;27
5;30
5;32
5;33
5;42
5;43
5;47
5;49
5;50
6;36
6;56
6;68
6;89
6;377
6;51
6;52
6;54
6;58
6;59
6;62
6;63
6;66
6;70
6;71
6;75
6;80
6;82
6;85
6;91
6;95
6;96
6;99
6;106
6;108
6;109
6;115
6;117
6;118
6;127
7;139
7;260
7;61
7;121
7;37
7;133
7;130
7;131
7;135
7;137
7;140
7;141
7;143
7;144
7;147
7;151
7;153
7;154
7;157
7;159
7;161
7;163
7;164
7;165
7;166
7;168
7;174
7;177
7;179
7;189
8;35
8;36
8;56
8;96
8;121
8;192
8;194
8;199
8;200
8;204
8;208
8;213
8;220
8;222
8;224
8;230
8;231
8;233
8;236
8;238
8;245
8;251
8;254
8;256
8;257
8;267
8;271
8;279
8;287
8;291
9;37
9;60
9;89
9;142
9;93
9;295
9;297
9;301
9;303
9;305
9;307
9;312
9;318
9;319
9;321
9;323
9;326
9;327
9;332
9;334
9;336
9;339
9;348
9;349
9;354
9;356
9;365
9;371
9;378
9;397
10;357
10;56
10;86
10;121
10;176
10;387
10;372
10;384
10;225
10;239
10;244
10;265
10;268
10;115
10;119
10;126
10;143
10;162
10;182
10;129
10;125
10;1
10;2
10;4
10;43
10;63
10;74
10;77
10;84
10;96
