details_id;youtube_id
1;1
1;2
1;3
1;4
1;5
1;6
1;7
1;8
2;9
2;10
2;11
2;12
3;13
3;14
4;15
4;16
5;17
5;18
7;19
7;20
7;21
7;22
7;23
8;24
8;25
8;26
9;27
10;28
10;29
11;30
12;31
15;32
16;33
16;34
17;35
18;36
20;37
21;38
22;39
22;40
22;41
22;42
23;43
24;44
27;45
29;46
33;47
34;48
34;49
35;50
35;51
39;52
39;53
42;54
43;55
45;56
45;57
46;58
47;59
47;60
47;61
47;62
48;63
48;64
49;65
49;66
51;67
51;68
51;69
51;70
53;71
54;72
54;73
54;74
54;75
54;76
55;77
56;78
58;79
59;80
60;81
60;82
61;83
63;84
63;85
63;86
65;87
65;88
66;89
67;90
67;91
67;92
70;93
72;94
74;95
74;96
74;97
74;98
75;99
75;100
78;101
78;102
78;103
79;104
80;105
86;106
86;107
86;108
86;109
88;110
89;111
90;112
90;113
92;114
92;115
98;116
98;117
98;118
98;119
98;120
99;121
99;122
99;123
99;124
101;125
101;126
101;127
101;128
102;129
102;130
103;131
104;132
105;133
105;134
105;135
107;136
107;137
107;138
109;139
109;140
109;141
109;142
110;143
110;144
113;145
113;146
113;147
113;148
113;149
114;150
114;151
120;152
120;153
124;154
124;155
125;156
125;157
125;158
129;159
130;160
132;161
132;162
132;163
132;164
134;165
134;166
135;167
136;168
136;169
138;170
138;171
140;172
140;173
143;174
144;175
145;176
145;177
146;178
146;179
147;180
147;181
147;182
153;183
156;184
156;185
156;186
156;187
158;188
158;189
158;190
159;191
162;192
163;193
165;194
165;195
165;196
169;197
169;198
170;199
174;200
174;201
176;202
177;203
177;204
177;205
178;206
178;207
179;208
180;209
181;210
182;211
183;212
184;213
185;214
186;215
187;216
188;217
189;218
190;219
192;220
193;221
195;222
197;223
197;224
197;225
197;226
199;227
200;228
201;229
201;230
203;231
203;232
203;233
204;234
206;235
208;236
212;237
213;238
214;239
215;240
216;241
217;242
218;243
219;244
219;245
223;246
224;247
225;248
226;249
227;250
228;251
229;252
230;253
234;254
235;255
235;256
237;257
240;258
241;259
242;260
243;261
244;262
245;263
246;264
248;265
248;266
249;267
249;268
250;269
250;270
250;271
251;272
251;273
251;274
252;275
252;276
252;277
253;278
253;279
254;280
254;281
257;282
257;283
261;284
263;285
264;286
266;287
267;288
268;289
269;290
270;291
271;292
272;293
272;294
275;295
275;296
276;297
276;298
277;299
278;300
279;301
280;302
281;303
282;304
283;305
284;306
285;307
286;308
287;309
287;310
287;311
287;312
288;313
288;314
289;315
289;316
289;317
290;318
291;319
291;320
291;321
292;322
293;323
293;324
294;325
294;326
295;327
296;328
298;329
298;330
299;331
299;332
299;333
301;334
301;335
301;336
303;337
303;338
305;339
305;340
307;341
307;342
307;343
307;344
307;345
308;346
308;347
308;348
309;349
309;350
310;351
310;352
311;353
311;354
312;355
312;356
313;357
314;358
314;359
315;360
316;361
317;362
318;363
319;364
319;365
322;366
324;367
331;368
331;369
331;370
332;371
334;372
334;373
336;374
336;375
336;376
339;377
342;378
347;379
347;380
348;381
352;382
355;383
355;384
355;385
360;386
360;387
366;388
369;389
369;390
369;391
370;392
370;393
370;394
371;395
371;396
371;397
371;398
372;399
374;400
375;401
378;402
378;403
382;404
382;405
383;406
383;407
384;408
384;409
385;410
390;411
390;412
390;413
391;414
391;415
393;416
394;417
396;418
397;419
399;420
399;421
400;422
402;423
402;424
402;425
405;426
405;427
409;428
409;429
409;430
412;431
412;432
412;433
415;434
415;435
422;436
424;437
426;438
426;439
426;440
427;441
427;442
432;443
434;444
438;445
438;446
440;447
441;448
445;449
449;450
451;451
451;452
452;453
455;454
457;455
464;456
464;457
464;458
465;459
467;460
474;461
477;462
478;463
478;464
480;465
483;466
485;467
488;468
491;469
494;470
496;471