details_id;youtube_id
1;1
1;2
1;3
1;4
1;5
1;6
2;7
2;8
2;9
2;10
2;11
3;12
3;13
3;14
4;15
4;16
4;17
4;18
5;19
5;20
7;21
8;22
8;23
8;24
8;25
9;26
10;27
10;28
10;29
10;30
10;31
10;32
10;33
10;34
10;35
10;36
10;37
11;38
12;39
12;40
12;41
14;42
14;43
14;44
16;45
16;46
17;47
19;48
19;49
20;50
20;51
20;52
20;53
20;54
21;55
21;56
21;57
21;58
21;59
22;60
22;61
22;62
22;63
23;64
23;65
23;66
24;67
27;68
27;69
29;70
31;71
32;72
32;73
32;74
33;75
33;76
33;77
33;78
33;79
34;80
34;81
35;82
35;83
36;84
36;85
37;86
40;87
40;88
43;89
43;90
46;91
46;92
46;93
46;94
46;95
47;96
47;97
47;98
48;99
48;100
50;101
50;102
50;103
50;104
51;105
51;106
51;107
52;108
52;109
53;110
53;111
53;112
54;113
54;114
55;115
55;116
56;117
56;118
57;119
57;120
58;121
58;122
59;123
59;124
60;125
60;126
60;127
61;128
61;129
61;130
62;131
62;132
62;133
62;134
63;135
63;136
63;137
63;138
63;139
64;140
64;141
64;142
65;143
65;144
66;145
67;146
67;147
68;148
68;149
68;150
69;151
70;152
70;153
70;154
71;155
72;156
73;157
74;158
74;159
75;160
75;161
76;162
76;163
76;164
76;165
77;166
78;167
78;168
78;169
79;170
79;171
79;172
80;173
80;174
81;175
81;176
82;177
82;178
83;179
83;180
83;181
83;182
84;183
84;184
85;185
85;186
86;187
86;188
86;189
86;190
86;191
87;192
87;193
87;194
88;195
88;196
88;197
88;198
89;199
89;200
90;201
90;202
90;203
91;204
91;205
91;206
92;207
93;208
94;209
94;210
94;211
95;212
96;213
97;214
97;215
97;216
97;217
98;218
98;219
98;220
99;221
99;222
100;223
100;224
101;225
101;226
101;227
103;228
103;229
103;230
103;231
103;232
104;233
104;234
105;235
105;236
105;237
105;238
105;239
106;240
106;241
107;242
107;243
108;244
108;245
109;246
109;247
109;248
109;249
110;250
110;251
110;252
111;253
111;254
112;255
112;256
112;257
113;258
114;259
115;260
116;261
117;262
118;263
118;264
118;265
119;266
120;267
121;268
121;269
122;270
122;271
123;272
124;273
125;274
125;275
126;276
127;277
127;278
128;279
129;280
129;281
130;282
131;283
131;284
132;285
133;286
134;287
134;288
135;289
136;290
137;291
137;292
137;293
138;294
138;295
139;296
139;297
139;298
140;299
140;300
140;301
140;302
142;303
143;304
143;305
144;306
144;307
145;308
146;309
147;310
147;311
148;312
148;313
149;314
150;315
151;316
151;317
152;318
152;319
152;320
152;321
152;322
154;323
155;324
156;325
157;326
157;327
157;328
158;329
158;330
158;331
159;332
159;333
160;334
161;335
162;336
163;337
164;338
164;339
165;340
166;341
166;342
167;343
169;344
169;345
169;346
170;347
170;348
170;349
171;350
171;351
172;352
172;353
173;354
174;355
174;356
175;357
175;358
175;359
176;360
177;361
177;362
177;363
178;364
179;365
180;366
181;367
182;368
183;369
184;370
185;371
186;372
187;373
188;374
189;375
190;376
191;377
191;378
192;379
193;380
194;381
195;382
196;383
197;384
198;385
199;386
200;387
200;388
200;389
201;390
201;391
201;392
201;393
201;394
201;395
201;396
202;397
203;398
203;399
204;400
204;401
205;402
205;403
206;404
206;405
207;406
207;407
208;408
208;409
209;410
210;411
210;412
211;413
211;414
212;415
213;416
214;417
214;418
215;419
216;420
217;421
218;422
218;423
219;424
219;425
223;426
224;427
225;428
226;429
227;430
233;431
233;432
233;433
233;434
233;435
234;436
234;437
234;438
235;439
235;440
235;441
236;442
236;443
236;444
237;445
237;446
240;447
240;448
241;449
242;450
243;451
244;452
244;453
244;454
245;455
246;456
248;457
249;458
250;459
251;460
252;461
253;462
254;463
254;464
255;465
256;466
257;467
257;468
258;469
258;470
259;471
259;472
259;473
261;474
261;475
262;476
263;477
263;478
263;479
264;480
264;481
264;482
265;483
265;484
265;485
265;486
265;487
265;488
266;489
267;490
268;491
269;492
270;493
271;494
272;495
273;496
274;497
275;498
276;499
277;500
278;501
279;502
279;503
279;504
280;505
280;506
280;507
281;508
281;509
282;510
282;511
283;512
283;513
284;514
285;515
286;516
286;517
286;518
286;519
286;520
286;521
286;522
286;523
287;524
287;525
287;526
288;527
288;528
289;529
289;530
289;531
290;532
291;533
291;534
293;535
294;536
295;537
296;538
298;539
300;540
300;541
300;542
301;543
301;544
301;545
302;546
302;547
302;548
305;549
305;550
307;551
307;552
308;553
308;554
308;555
308;556
308;557
309;558
309;559
309;560
310;561
310;562
311;563
311;564
312;565
312;566
313;567
313;568
313;569
314;570
315;571
315;572
315;573
316;574
318;575
320;576
320;577
321;578
321;579
321;580
322;581
322;582
323;583
323;584
323;585
326;586
326;587
327;588
328;589
328;590
330;591
331;592
333;593
334;594
334;595
336;596
336;597
337;598
337;599
337;600
337;601
342;602
342;603
347;604
347;605
347;606
348;607
352;608
352;609
352;610
352;611
352;612
352;613
353;614
355;615
355;616
355;617
360;618
361;619
361;620
361;621
362;622
362;623
363;624
363;625
363;626
364;627
364;628
364;629
365;630
365;631
366;632
367;633
368;634
368;635
368;636
369;637
369;638
369;639
370;640
370;641
370;642
371;643
371;644
371;645
373;646
374;647
374;648
374;649
374;650
375;651
375;652
376;653
377;654
378;655
379;656
380;657
380;658
381;659
381;660
381;661
382;662
385;663
386;664
386;665
387;666
387;667
388;668
389;669
390;670
390;671
391;672
391;673
392;674
392;675
393;676
393;677
393;678
394;679
394;680
397;681
397;682
400;683
400;684
401;685
402;686
402;687
402;688
403;689
404;690
405;691
406;692
406;693
407;694
407;695
407;696
408;697
408;698
411;699
415;700
415;701
415;702
415;703
416;704
416;705
416;706
417;707
417;708
417;709
418;710
418;711
418;712
418;713
418;714
418;715
422;716
422;717
424;718
424;719
424;720
424;721
425;722
426;723
426;724
427;725
428;726
428;727
428;728
430;729
430;730
432;731
432;732
433;733
433;734
433;735
435;736
437;737
437;738
438;739
438;740
438;741
438;742
438;743
438;744
439;745
439;746
439;747
440;748
440;749
440;750
443;751
445;752
447;753
447;754
447;755
448;756
449;757
449;758
449;759
450;760
451;761
451;762
452;763
452;764
453;765
455;766
456;767
456;768
456;769
457;770
457;771
457;772
457;773
458;774
458;775
459;776
459;777
460;778
460;779
460;780
464;781
464;782
465;783
466;784
466;785
469;786
469;787
470;788
470;789
471;790
471;791
472;792
472;793
473;794
477;795
477;796
477;797
478;798
478;799
478;800
480;801
481;802
482;803
482;804
483;805
483;806
484;807
485;808
488;809
488;810
489;811
489;812
490;813
490;814
492;815
494;816
494;817
495;818
495;819
496;820
498;821
498;822
499;823
499;824
500;825
501;826
501;827