id;name;description;url;enabled;created_by;created_date;last_modified_by
1;Sonic Hedgehog прохождение;Sonic Hedgehog прохождение;https://www.youtube.com/embed/JqQYDLcvkBc;true;system;2019-02-25 00:00:00.000;system
2;Sonic the Hedgehog 2 прохождение;Sonic the Hedgehog 2 прохождение;https://www.youtube.com/embed/8cr1rqVcIhA;true;system;2019-02-25 00:00:00.000;system
3;Sonic the Hedgehog 3 and Knuckles прохождение;Sonic the Hedgehog 3 and Knuckles прохождение;https://www.youtube.com/embed/j350HVcB2dA;true;system;2019-02-25 00:00:00.000;system
4;Sonic the Hedgehog (2006) прохождение;Sonic the Hedgehog (2006) прохождение;https://www.youtube.com/embed/wL0TSwXfx0M;true;system;2019-02-25 00:00:00.000;system
5;Sonic The Hedgehog быстрое прохождение 13:03;Sonic The Hedgehog быстрое прохождение 13:03;https://www.youtube.com/embed/9kOAdhUlkt0;true;system;2019-02-25 00:00:00.000;system
6;Как менялись игры о Сонике с 1991-2018;Как менялись игры о Сонике с 1991-2018;https://www.youtube.com/embed/WxMskhDXLYg;true;system;2019-02-25 00:00:00.000;system
7;SONIC FORCES: ФИЛЬМ - ВСЕ СЦЕНЫ - ПОЛНОЕ ПРОХОЖДЕНИЕ НА РУССКОМ;SONIC FORCES: ФИЛЬМ - ВСЕ СЦЕНЫ - ПОЛНОЕ ПРОХОЖДЕНИЕ НА РУССКОМ;https://www.youtube.com/embed/w6YcU2dgKbs;true;system;2019-02-25 00:00:00.000;system
8;Стрим: Sonic the Hedgehog - Нашествие собак;Стрим: Sonic the Hedgehog - Нашествие собак;https://www.youtube.com/embed/JkvgvGkRiC8;true;system;2019-02-25 00:00:00.000;system
9;Super Mario Bros - Полное прохождение (Walkthrough);Super Mario Bros - Полное прохождение (Walkthrough);https://www.youtube.com/embed/sCOwp39Jpxw;true;system;2019-02-25 00:00:00.000;system
10;Полное прохождение Super Mario Bros. - все уровни;Полное прохождение Super Mario Bros. - все уровни;https://www.youtube.com/embed/i5U9z-fCp60;true;system;2019-02-25 00:00:00.000;system
11;Полное прохождение игры Mario Forever;Полное прохождение игры Mario Forever;https://www.youtube.com/embed/BXll5BEN-yY;true;system;2019-02-25 00:00:00.000;system
12;Прохождение Марио за 5 минут - Настоящий Гений =);Прохождение Марио за 5 минут - Настоящий Гений =);https://www.youtube.com/embed/x2j2tzZq1Fk;true;system;2019-02-25 00:00:00.000;system
13;Subway Surfers играем. Сабвей серфер Мультик игра для детей. Прохождение игры.#3;Subway Surfers играем. Сабвей серфер Мультик игра для детей. Прохождение игры.#3;https://www.youtube.com/embed/9ygcfFHiEH0;true;system;2019-02-25 00:00:00.000;system
14;САБВЕЙ СЕРФ в Роблокс Челлендж прохождение игра Roblox Subway Surf;САБВЕЙ СЕРФ в Роблокс Челлендж прохождение игра Roblox Subway Surf;https://www.youtube.com/embed/ImopH0dnPTI;true;system;2019-02-25 00:00:00.000;system
15;Прохождение игры Храм бега 2;Прохождение игры Храм бега 2;https://www.youtube.com/embed/KxAy8O6-lJw;true;system;2019-02-25 00:00:00.000;system
16;Храм бег против Храм бег 2. Лучший бесконечный Запуск Игры прохождение Обзор ИОС;Храм бег против Храм бег 2. Лучший бесконечный Запуск Игры прохождение Обзор ИОС;https://www.youtube.com/embed/AeSpvWf5Ak0;true;system;2019-02-25 00:00:00.000;system
17;Прохождение игры Зверополис: Расследования Хопс дело №2,1 Семена сомнения;Прохождение игры Зверополис: Расследования Хопс дело №2,1 Семена сомнения;https://www.youtube.com/embed/2ksKhNgBXlo;true;system;2019-02-25 00:00:00.000;system
18;Зверополис Расследование Хопс ПРОХОЖДЕНИЕ #1 | ПЕРВЫЙ ВЗГЛЯД;Зверополис Расследование Хопс ПРОХОЖДЕНИЕ #1 | ПЕРВЫЙ ВЗГЛЯД;https://www.youtube.com/embed/tJHdi-BW2wU;true;system;2019-02-25 00:00:00.000;system
19;MrEpikStudio прохождение игры Мечи и сандали 1 часть!;MrEpikStudio прохождение игры Мечи и сандали 1 часть!;https://www.youtube.com/embed/bAomt152xx4;true;system;2019-02-25 00:00:00.000;system
20;Мечи и Сандали 1;Мечи и Сандали 1;https://www.youtube.com/embed/IwoI-MomHkU;true;system;2019-02-25 00:00:00.000;system
21;Обзор игры мечи и сандали 2;Обзор игры мечи и сандали 2;https://www.youtube.com/embed/gsVLU7LG7BA;true;system;2019-02-25 00:00:00.000;system
22;Игра Мечи и Сандалии 3 прохождение;Игра Мечи и Сандалии 3 прохождение;https://www.youtube.com/embed/GHeKj_ghPU4;true;system;2019-02-25 00:00:00.000;system
23;Прохождение Игры Мечи Сандали 2;Прохождение Игры Мечи Сандали 2;https://www.youtube.com/embed/Y_SLKtmgTqc;true;system;2019-02-25 00:00:00.000;system
24;Toy Story 3 - История Игрушек 3 - Прохождение 01 - Знакомство с Городом Игрушек;Toy Story 3 - История Игрушек 3 - Прохождение 01 - Знакомство с Городом Игрушек;https://www.youtube.com/embed/v11sHV0pVbE;true;system;2019-02-25 00:00:00.000;system
25;Toy Story 3 - История Игрушек 3 - Прохождение 02 - Дом с Привидениями;Toy Story 3 - История Игрушек 3 - Прохождение 02 - Дом с Привидениями;https://www.youtube.com/embed/yYewqQpEmGo;true;system;2019-02-25 00:00:00.000;system
26;Toy Story 3 - История Игрушек 3 - Прохождение 03 - Учавствуем в Гонках с Булзаем;Toy Story 3 - История Игрушек 3 - Прохождение 03 - Учавствуем в Гонках с Булзаем;https://www.youtube.com/embed/PbYiqYI4SqM;true;system;2019-02-25 00:00:00.000;system
27;Goldie and Bear - Fairy Tale Forest Adventures / Голди и Медведь: Приключения в сказочном лесуу;Goldie and Bear - Fairy Tale Forest Adventures / Голди и Медведь: Приключения в сказочном лесуу;https://www.youtube.com/embed/eBYErItVAbQ;true;system;2019-02-25 00:00:00.000;system
28;How to Train Your Dragon 2 (Как приручить дракона 2) Игра Прохождение Часть 1;How to Train Your Dragon 2 (Как приручить дракона 2) Игра Прохождение Часть 1;https://www.youtube.com/embed/U_gP9ldKwrA;true;system;2019-02-25 00:00:00.000;system
29;Как приручить дракона 2 игра;Как приручить дракона 2 игра;https://www.youtube.com/embed/4B8uzyTZLFo;true;system;2019-02-25 00:00:00.000;system
30;Войны на плотах 2 Raft Wars 2 читы коды;Войны на плотах 2 Raft Wars 2 читы коды;https://www.youtube.com/embed/pNqdUwqXLeo;true;system;2019-02-25 00:00:00.000;system
31;Прохождение игры Щенячий патруль кукурузная катастрофа;Прохождение игры Щенячий патруль кукурузная катастрофа;https://www.youtube.com/embed/mOOZ_wXwMMs;true;system;2019-02-25 00:00:00.000;system
32;Игра Шарики;Игра Шарики;https://www.youtube.com/embed/MECuBEM6w6s;true;system;2019-02-25 00:00:00.000;system
33;Прохождение Игры Гравити Фолз: Мистический Квест за Диппера;Прохождение Игры Гравити Фолз: Мистический Квест за Диппера;https://www.youtube.com/embed/8rA2gOJhCSQ;true;system;2019-02-25 00:00:00.000;system
34;Прохождение игры Гравити Фолз;Прохождение игры Гравити Фолз;https://www.youtube.com/embed/3pCxmknb3fM;true;system;2019-02-25 00:00:00.000;system
35;Прохождение игры Огонь и Вода 1: Лесной Храм (ВСЕ УРОВНИ);Прохождение игры Огонь и Вода 1: Лесной Храм (ВСЕ УРОВНИ);https://www.youtube.com/embed/dyrcf0mHnBs;true;system;2019-02-25 00:00:00.000;system
36;Косынка. Прохождение;Косынка. Прохождение;https://www.youtube.com/embed/YgyFxWUehJk;true;system;2019-02-25 00:00:00.000;system
37;LEGO DC Super Heroes Mighty Micros Walkthrough;LEGO DC Super Heroes Mighty Micros Walkthrough;https://www.youtube.com/embed/rbZgLO8LN_0;true;system;2019-02-25 00:00:00.000;system
38;Прохождение игры мой Том;Прохождение игры мой Том;https://www.youtube.com/embed/L5QFmpy7-Fs;true;system;2019-02-25 00:00:00.000;system
39;Мой Говорящий Том 2 #1 ПРОХОЖДЕНИЕ - My Talking Tom 2;Мой Говорящий Том 2 #1 ПРОХОЖДЕНИЕ - My Talking Tom 2;https://www.youtube.com/embed/qLHUWfoSVuc;true;system;2019-02-25 00:00:00.000;system
40;Мой Говорящий Том 2 Обычный День Тома #12;Мой Говорящий Том 2 Обычный День Тома #12;https://www.youtube.com/embed/YunIX54IPts;true;system;2019-02-25 00:00:00.000;system
41;Мой Говорящий Том 2 Новый ГОД на Носу;Мой Говорящий Том 2 Новый ГОД на Носу;https://www.youtube.com/embed/TA_CuUB0SSE;true;system;2019-02-25 00:00:00.000;system
42;Мой Говорящий Том 2 День Рождения Тома;Мой Говорящий Том 2 День Рождения Тома;https://www.youtube.com/embed/pyOn66Es2p0;true;system;2019-02-25 00:00:00.000;system
43;Том влюбился в анжелу Tom in love with Angela Игра как мультик про котят от Фаника;Том влюбился в анжелу Tom in love with Angela Игра как мультик про котят от Фаника;https://www.youtube.com/embed/wsGrC6rJlh4;true;system;2019-02-25 00:00:00.000;system
44;БЕРЕМЕННЫЙ МИНЬОН - ИГРЫ ДЛЯ ДЕТЕЙ?!;БЕРЕМЕННЫЙ МИНЬОН - ИГРЫ ДЛЯ ДЕТЕЙ?!;https://www.youtube.com/embed/XsjaZC8AcZo;true;system;2019-02-25 00:00:00.000;system
45;СВИНКА ПЕППА: НОВЫЙ ДОМ (онлайн) ИГРА ДЛЯ ДЕТЕЙ;СВИНКА ПЕППА: НОВЫЙ ДОМ (онлайн) ИГРА ДЛЯ ДЕТЕЙ;https://www.youtube.com/embed/5nJuxpXH3Rg;true;system;2019-02-25 00:00:00.000;system
46;Огонь и Вода 4: В Хрустальном Храме прохождение;Огонь и Вода 4: В Хрустальном Храме прохождение;https://www.youtube.com/embed/gG9p5hmZxB0;true;system;2019-02-25 00:00:00.000;system
47;Farm Frenzy Pizza Party only GOLD Curd Lane 1 (level 19) Веселая ферма Печем пиццу Творожная 1;Farm Frenzy Pizza Party only GOLD Curd Lane 1 (level 19) Веселая ферма Печем пиццу Творожная 1;https://www.youtube.com/embed/0tvnoyO06O4;true;system;2019-02-25 00:00:00.000;system
48;Баранчик Шон в Лондоне.;Баранчик Шон в Лондоне.;https://www.youtube.com/embed/_k9G5k3SSTw;true;system;2019-02-25 00:00:00.000;system
49;Баранчик Шон в Лондоне / Shaun the sheep in London;Баранчик Шон в Лондоне / Shaun the sheep in London;https://www.youtube.com/embed/RxR5Du_wd7c;true;system;2019-02-25 00:00:00.000;system
50;финес и ферб прохождение часть 1;финес и ферб прохождение часть 1;https://www.youtube.com/embed/OLl5zBNDo4o;true;system;2019-02-25 00:00:00.000;system
51;Финес и Ферб Покорение 2-го Измерения (3 часть);Финес и Ферб Покорение 2-го Измерения (3 часть);https://www.youtube.com/embed/NS-daTeCWUY;true;system;2019-02-25 00:00:00.000;system
52;Princess or Zombie (Принцессы Диснея или зомби);Princess or Zombie (Принцессы Диснея или зомби);https://www.youtube.com/embed/ndxlBLCUxeg;true;system;2019-02-25 00:00:00.000;system
53;ДЕВОЧКА vs ЗОМБИ в Plants vs. Zombies: Garden Warfare PS4;ДЕВОЧКА vs ЗОМБИ в Plants vs. Zombies: Garden Warfare PS4;https://www.youtube.com/embed/Zdap-iufltw;true;system;2019-02-25 00:00:00.000;system
54;Прохождение игры баскетбол 1!!🎈🎈;Прохождение игры баскетбол 1!!🎈🎈;https://www.youtube.com/embed/DIa8xmTjxIE;true;system;2019-02-25 00:00:00.000;system
55;NEW Игры для детей—Disney ПРинцесса Золушка свадебный макияж—Мультик для девочек;NEW Игры для детей—Disney ПРинцесса Золушка свадебный макияж—Мультик для девочек;https://www.youtube.com/embed/lPQlw0GHL-w;true;system;2019-02-25 00:00:00.000;system
56;Barbie Pegasister (Барби любит пони);Barbie Pegasister (Барби любит пони);https://www.youtube.com/embed/yMsF043abPM;true;system;2019-02-25 00:00:00.000;system
57;Дисней Принцесса Барби Игры—Барби Пони—Онлайн Видео Игры для Детей Мультик 2015;Дисней Принцесса Барби Игры—Барби Пони—Онлайн Видео Игры для Детей Мультик 2015;https://www.youtube.com/embed/7BT8vJpp7Zo;true;system;2019-02-25 00:00:00.000;system
58;Лего НИНДЗЯГО на русском языке 24 серия. Прохождение игры лего;Лего НИНДЗЯГО на русском языке 24 серия. Прохождение игры лего;https://www.youtube.com/embed/EctvLfLwPE8;true;system;2019-02-25 00:00:00.000;system
59;Lego Duplo (Лего дупло) - прохождение игры;Lego Duplo (Лего дупло) - прохождение игры;https://www.youtube.com/embed/dx2231-C0Kc;true;system;2019-02-25 00:00:00.000;system
60;Lego Duplo Forest! Серия 1! Первая прогулка! Прохождение! Лего Дупло;Lego Duplo Forest! Серия 1! Первая прогулка! Прохождение! Лего Дупло;https://www.youtube.com/embed/1zyntqcYlHc;true;system;2019-02-25 00:00:00.000;system
61;Lego Duplo Ice Cream. Прохождение игры про зайчика, который очень хотел мороженое;Lego Duplo Ice Cream. Прохождение игры про зайчика, который очень хотел мороженое;https://www.youtube.com/embed/oFO9KRyYMwA;true;system;2019-02-25 00:00:00.000;system
62;Видео Лего Дупло (обзор игры lego duplo);Видео Лего Дупло (обзор игры lego duplo);https://www.youtube.com/embed/y1R4cRLCnI0;true;system;2019-02-25 00:00:00.000;system
63;Lego Friends (Лего друзья) - прохождение игры;Lego Friends (Лего друзья) - прохождение игры;https://www.youtube.com/embed/vXdLfgwR3os;true;system;2019-02-25 00:00:00.000;system
64;Lego Friends Story Maker/Лего Френдс: Создай Историю;Lego Friends Story Maker/Лего Френдс: Создай Историю;https://www.youtube.com/embed/iwQydnJdIng;true;system;2019-02-25 00:00:00.000;system
65;Маленькое королевство Холли и Бена Прохождение игры для детей;Маленькое королевство Холли и Бена Прохождение игры для детей;https://www.youtube.com/embed/jRIqhj-Qt1c;true;system;2019-02-25 00:00:00.000;system
66;прохождение игры с гастоном из мультика маленькое королевство Бена и Холи;прохождение игры с гастоном из мультика маленькое королевство Бена и Холи;https://www.youtube.com/embed/qJ363pKfvnY;true;system;2019-02-25 00:00:00.000;system
67;Игра 5 Ночей С Фредди 1;Игра 5 Ночей С Фредди 1;https://www.youtube.com/embed/axQ8dAs_bNg;true;system;2019-02-25 00:00:00.000;system
68;Прохождение игры файф Найт Фредди 2;Прохождение игры файф Найт Фредди 2;https://www.youtube.com/embed/6LYDspfYtyg;true;system;2019-02-25 00:00:00.000;system
69;5 ночей с мишкой фредди 2 4 ночь;5 ночей с мишкой фредди 2 4 ночь;https://www.youtube.com/embed/8Ug8ahyMQCA;true;system;2019-02-25 00:00:00.000;system
70;5 Ночей У Фредди! Четвертый заход!;5 Ночей У Фредди! Четвертый заход!;https://www.youtube.com/embed/2VimwVzzQik;true;system;2019-02-25 00:00:00.000;system
71;The milk quest. Молочный квест, проходим вместе.;The milk quest. Молочный квест, проходим вместе.;https://www.youtube.com/embed/IUkrmoTBPlc;true;system;2019-02-25 00:00:00.000;system
72;Папа ЖЕЛЕ герой против ПИРАТОВ. Часть 1. Мультик ИГРА для детей на Игрули TV. JellyDad Hero;Папа ЖЕЛЕ герой против ПИРАТОВ. Часть 1. Мультик ИГРА для детей на Игрули TV. JellyDad Hero;https://www.youtube.com/embed/X75_YDIZrec;true;system;2019-02-25 00:00:00.000;system
73;Папа ЖЕЛЕ герой против ПИРАТОВ. Серия 2. Мультфильм ИГРА для детей на Игрули TV. JellyDad Hero;Папа ЖЕЛЕ герой против ПИРАТОВ. Серия 2. Мультфильм ИГРА для детей на Игрули TV. JellyDad Hero;https://www.youtube.com/embed/MavPz-lz3N4;true;system;2019-02-25 00:00:00.000;system
74;Папа ЖЕЛЕ герой против ПИРАТОВ. Серия 3. Мультик ИГРА для детей на Игрули TV. JellyDad Hero;Папа ЖЕЛЕ герой против ПИРАТОВ. Серия 3. Мультик ИГРА для детей на Игрули TV. JellyDad Hero;https://www.youtube.com/embed/jaYHKQtrbGE;true;system;2019-02-25 00:00:00.000;system
75;Папа ЖЕЛЕ герой против ПИРАТОВ. Серия 4. Босс. Мультфильм ИГРА для детей на Игрули TV. JellyDad Hero;Папа ЖЕЛЕ герой против ПИРАТОВ. Серия 4. Босс. Мультфильм ИГРА для детей на Игрули TV. JellyDad Hero;https://www.youtube.com/embed/u9hx6syR8rU;true;system;2019-02-25 00:00:00.000;system
76;Папа ЖЕЛЕ герой против ПИРАТОВ. Серия 5. Мультик ИГРА для детей на Игрули TV. JellyDad Hero;Папа ЖЕЛЕ герой против ПИРАТОВ. Серия 5. Мультик ИГРА для детей на Игрули TV. JellyDad Hero;https://www.youtube.com/embed/u97Sv5iH7ak;true;system;2019-02-25 00:00:00.000;system
77;САМАЯ ПРОСТАЯ ИГРА! (НЕТ) | Cuphead;САМАЯ ПРОСТАЯ ИГРА! (НЕТ) | Cuphead;https://www.youtube.com/embed/iHVIJQGPX8g;true;system;2019-02-25 00:00:00.000;system
78;Free Gear Full Gameplay Walkthrough;Free Gear Full Gameplay Walkthrough;https://www.youtube.com/embed/ucpIO4B33eA;true;system;2019-02-25 00:00:00.000;system
79;Istrolid - Гравитация (ПРОХОЖДЕНИЕ #6);Istrolid - Гравитация (ПРОХОЖДЕНИЕ #6);https://www.youtube.com/embed/SOsnW2FnEHM;true;system;2019-02-25 00:00:00.000;system
80;Roly Poly Cannon Bloody Monster Pack One Full Walkthrough;Roly Poly Cannon Bloody Monster Pack One Full Walkthrough;https://www.youtube.com/embed/o1vfUn8Odkk;true;system;2019-02-25 00:00:00.000;system
81;игра Пейнтбол Гонки финал игра вк;игра Пейнтбол Гонки финал игра вк;https://www.youtube.com/embed/QkviQ76e9Xs;true;system;2019-02-25 00:00:00.000;system
82;Пейнтбол Гонки(мисии)!;Пейнтбол Гонки(мисии)!;https://www.youtube.com/embed/Ogrd_8cJTC0;true;system;2019-02-25 00:00:00.000;system
83;Войны грузовиков. Игра. Truk wars. Kids games.;Войны грузовиков. Игра. Truk wars. Kids games.;https://www.youtube.com/embed/jgiLn4NIdcU;true;system;2019-02-25 00:00:00.000;system
84;Игра Лазерная Пушка 1;Игра Лазерная Пушка 1;https://www.youtube.com/embed/wz3f3nJJNbw;true;system;2019-02-25 00:00:00.000;system
85;Лазерная Пушка 2 – полное прохождение;Лазерная Пушка 2 – полное прохождение;https://www.youtube.com/embed/_uUBsY90Pxk;true;system;2019-02-25 00:00:00.000;system
86;Laser Cannon 3/Игра Лазерная пушка 3;Laser Cannon 3/Игра Лазерная пушка 3;https://www.youtube.com/embed/oVNf67o0Kkk;true;system;2019-02-25 00:00:00.000;system
87;Кот Вокруг Света Кругосветное Котошествие Накорми Голодного Котейку Гамбургером;Кот Вокруг Света Кругосветное Котошествие Накорми Голодного Котейку Гамбургером;https://www.youtube.com/embed/Lug4CBizjlo;true;system;2019-02-25 00:00:00.000;system
88;[ МУЛЬТИК ] ИГРА CAT AROUND THE WORLD: ALPINE LAKES Котик в Мире Озер;[ МУЛЬТИК ] ИГРА CAT AROUND THE WORLD: ALPINE LAKES Котик в Мире Озер;https://www.youtube.com/embed/UM6YH6Kne3c;true;system;2019-02-25 00:00:00.000;system
89;Прохождение игры --Побег друзей 2.Полностью.;Прохождение игры --Побег друзей 2.Полностью.;https://www.youtube.com/embed/uvsBvCfDuHA;true;system;2019-02-25 00:00:00.000;system
90;Погрузчик Уровни 1-24 Прохождение | TRUCK LOADER Levels 1-24 Walkthrough;Погрузчик Уровни 1-24 Прохождение | TRUCK LOADER Levels 1-24 Walkthrough;https://www.youtube.com/embed/10O6PlbHKwg;true;system;2019-02-25 00:00:00.000;system
91;Погрузчик 2 Уровни 1-30 Прохождение | TRUCK LOADER 2 Levels 1-30 Walkthrough;Погрузчик 2 Уровни 1-30 Прохождение | TRUCK LOADER 2 Levels 1-30 Walkthrough;https://www.youtube.com/embed/0kRRj5YQTAg;true;system;2019-02-25 00:00:00.000;system
92;Truck Loader 4 Walkthrough(level 19-30) / Прохождение Грузовик погрузчик (ур.19-30);Truck Loader 4 Walkthrough(level 19-30) / Прохождение Грузовик погрузчик (ур.19-30);https://www.youtube.com/embed/Lbu60ulIt1A;true;system;2019-02-25 00:00:00.000;system
93;Переверни и иди. Мультик игра про маленького пришельца. Flip and go. Kids games.;Переверни и иди. Мультик игра про маленького пришельца. Flip and go. Kids games.;https://www.youtube.com/embed/P8CH82VA5EY;true;system;2019-02-25 00:00:00.000;system
94;Игра Инкасатор 3 и 4;Игра Инкасатор 3 и 4;https://www.youtube.com/embed/GWw3L0DWSsw;true;system;2019-02-25 00:00:00.000;system
95;Игры онлайн Удар стихии;Игры онлайн Удар стихии;https://www.youtube.com/embed/X8f2qSG2jUE;true;system;2019-02-25 00:00:00.000;system
96;Игра Удар стихии 7 играть онлайн | Disaster will Strike 7 | Gamelands.net;Игра Удар стихии 7 играть онлайн | Disaster will Strike 7 | Gamelands.net;https://www.youtube.com/embed/BcSf7ao9Gxw;true;system;2019-02-25 00:00:00.000;system
97;Удар стихии 5 Защитник;Удар стихии 5 Защитник;https://www.youtube.com/embed/BrK406ShFaE;true;system;2019-02-25 00:00:00.000;system
98;Удар Стихии / Strike Elements;Удар Стихии / Strike Elements;https://www.youtube.com/embed/K8zED--5u54;true;system;2019-02-25 00:00:00.000;system
99;Alien Thief Walkthrough - Levels 1-15;Alien Thief Walkthrough - Levels 1-15;https://www.youtube.com/embed/erVLDmfdZMg;true;system;2019-02-25 00:00:00.000;system
100;Alien Thief - Game Walkthrough (full);Alien Thief - Game Walkthrough (full);https://www.youtube.com/embed/EhjBGmIoT4k;true;system;2019-02-25 00:00:00.000;system
101;Обзор и прохождение 3 уровней игры: Разморозь меня.;Обзор и прохождение 3 уровней игры: Разморозь меня.;https://www.youtube.com/embed/PLoLCq3p2E0;true;system;2019-02-25 00:00:00.000;system
102;Разморозь Меня;Разморозь Меня;https://www.youtube.com/embed/BBYmoa73qEI;true;system;2019-02-25 00:00:00.000;system
103;Разморозь меня - игра для девочек;Разморозь меня - игра для девочек;https://www.youtube.com/embed/ik8yfhQnp5Q;true;system;2019-02-25 00:00:00.000;system
104;прохождение:ловец огня часть 1 взлом игры и начало;прохождение:ловец огня часть 1 взлом игры и начало;https://www.youtube.com/embed/2XGzru7dN40;true;system;2019-02-25 00:00:00.000;system
105;Penalty World Cup Brazil (Пенальти чемпионата мира по футболу) - прохождение игры;Penalty World Cup Brazil (Пенальти чемпионата мира по футболу) - прохождение игры;https://www.youtube.com/embed/8j8kF-efK1s;true;system;2019-02-25 00:00:00.000;system
106;Сумасшедшие Гонки #1 Прохождение игры ВИДЕО для детей про машинки ROAD SMASH kids games about cars;Сумасшедшие Гонки #1 Прохождение игры ВИДЕО для детей про машинки ROAD SMASH kids games about cars;https://www.youtube.com/embed/hPh8CXwz4ic;true;system;2019-02-25 00:00:00.000;system
107;флеш игра Сумасшедшие Гонки 2 вторая серия madmen Race 2;флеш игра Сумасшедшие Гонки 2 вторая серия madmen Race 2;https://www.youtube.com/embed/3S8f68PTEM0;true;system;2019-02-25 00:00:00.000;system
108;Мультик ИГРА Сумасшедшие Гонки #2-2 Байкер Джексон Бургермен мультфильм для детей HD;Мультик ИГРА Сумасшедшие Гонки #2-2 Байкер Джексон Бургермен мультфильм для детей HD;https://www.youtube.com/embed/9ytHTIO-8ww;true;system;2019-02-25 00:00:00.000;system
109;флеш игра Сумасшедшие Гонки 2 третия серия madmen Race 2;флеш игра Сумасшедшие Гонки 2 третия серия madmen Race 2;https://www.youtube.com/embed/6_KN33Ew2yI;true;system;2019-02-25 00:00:00.000;system
110;Прохождение игры King's Game. Игра королей.;Прохождение игры King's Game. Игра королей.;https://www.youtube.com/embed/8Qq816SjnAk;true;system;2019-02-25 00:00:00.000;system
111;Sprint Club Nitro Full Gameplay Walkthrough;Sprint Club Nitro Full Gameplay Walkthrough;https://www.youtube.com/embed/PCRwdM9nKe4;true;system;2019-02-25 00:00:00.000;system
112;Шпионская Машина Spy Car от создателей Машина Ест Машину - прохождение игры похожей на Car Eats Car;Шпионская Машина Spy Car от создателей Машина Ест Машину - прохождение игры похожей на Car Eats Car;https://www.youtube.com/embed/abTNJfPl_kw;true;system;2019-02-25 00:00:00.000;system
113;Машинки - Машина Шпион Смотреть онлайн\Machines - SPY CAR Watch online;Машинки - Машина Шпион Смотреть онлайн\Machines - SPY CAR Watch online;https://www.youtube.com/embed/jjRI5j_vABo;true;system;2019-02-25 00:00:00.000;system
114;Прохождение игры Маленький король, бродилки, приключения;Прохождение игры Маленький король, бродилки, приключения;https://www.youtube.com/embed/28UBqvLYvCA;true;system;2019-02-25 00:00:00.000;system
115;Tiny King полное прохождение;Tiny King полное прохождение;https://www.youtube.com/embed/AuYKXmhiB8Q;true;system;2019-02-25 00:00:00.000;system
116;Kingdom Rush 1 - Classic - Королевство Раш - Кингдом Раш;Kingdom Rush 1 - Classic - Королевство Раш - Кингдом Раш;https://www.youtube.com/embed/sJ6x2PJbYMk;true;system;2019-02-25 00:00:00.000;system
117;Смотреть Kingdom Rush Прохождение #1;Смотреть Kingdom Rush Прохождение #1;https://www.youtube.com/embed/VA-s0Hr3b1E;true;system;2019-02-25 00:00:00.000;system
118;Прохождение Kingdom Rush [Кингдом Раш] - 4 и 5 Уровни с Андромаликом (Veteran);Прохождение Kingdom Rush [Кингдом Раш] - 4 и 5 Уровни с Андромаликом (Veteran);https://www.youtube.com/embed/knf_2zD6GnQ;true;system;2019-02-25 00:00:00.000;system
119;Kingdom Rush - Прохождение первых 3 уровней с Андромаликом + Достижения (Ветеран);Kingdom Rush - Прохождение первых 3 уровней с Андромаликом + Достижения (Ветеран);https://www.youtube.com/embed/hmyTUcHDCps;true;system;2019-02-25 00:00:00.000;system
120;Прохождение Kingdom Rush [Кингдом Раш] - 4 и 5 Уровни с Андромаликом (Veteran);Прохождение Kingdom Rush [Кингдом Раш] - 4 и 5 Уровни с Андромаликом (Veteran);https://www.youtube.com/embed/knf_2zD6GnQ;true;system;2019-02-25 00:00:00.000;system
121;Поймай конфетку. Шар тарзан 1- 8;Поймай конфетку. Шар тарзан 1- 8;https://www.youtube.com/embed/G9LYkmDaAVM;true;system;2019-02-25 00:00:00.000;system
122;Флэш (мини) игры 3 - Tarzan ball (Мяч Тарзан) (ИГРАЮ НА TOUCH PAD);Флэш (мини) игры 3 - Tarzan ball (Мяч Тарзан) (ИГРАЮ НА TOUCH PAD);https://www.youtube.com/embed/sPY5QLtO1Ac;true;system;2019-02-25 00:00:00.000;system
123;Поймай конфетку. Шар тарзан 9 -13;Поймай конфетку. Шар тарзан 9 -13;https://www.youtube.com/embed/LcozOY3PpEA;true;system;2019-02-25 00:00:00.000;system
124;Поймай конфетку. Шар Тарзан 13 - 17;Поймай конфетку. Шар Тарзан 13 - 17;https://www.youtube.com/embed/Ak1UY1mc-rA;true;system;2019-02-25 00:00:00.000;system
125;Mad Day 2 - безумный день 2 #2;Mad Day 2 - безумный день 2 #2;https://www.youtube.com/embed/jyhOZ3QZB8I;true;system;2019-02-25 00:00:00.000;system
126;МАШИНКИ / MAD DAY / Безумный день ПРОХОЖДЕНИЕ / игры про машины / видео для детей / kids games car;МАШИНКИ / MAD DAY / Безумный день ПРОХОЖДЕНИЕ / игры про машины / видео для детей / kids games car;https://www.youtube.com/embed/S8aForK8pUg;true;system;2019-02-25 00:00:00.000;system
127;Безумный день игра для мальчиков 3;Безумный день игра для мальчиков 3;https://www.youtube.com/embed/DW54X7xl8ls;true;system;2019-02-25 00:00:00.000;system
128;Mad Day! Flash Game! Прохождение игры Безумный день! Часть 4! Walkthrough;Mad Day! Flash Game! Прохождение игры Безумный день! Часть 4! Walkthrough;https://www.youtube.com/embed/zg-Cd6h169Y;true;system;2019-02-25 00:00:00.000;system
129;Прохождение игры бейсбол;Прохождение игры бейсбол;https://www.youtube.com/embed/HyfUEEtllDQ;true;system;2019-02-25 00:00:00.000;system
130;Бейсбол бой;Бейсбол бой;https://www.youtube.com/embed/aLMaQGDcyW8;true;system;2019-02-25 00:00:00.000;system
131;Манекен уничтожен - Ragdoll Achievement 2 - Симулятор пыток [4];Манекен уничтожен - Ragdoll Achievement 2 - Симулятор пыток [4];https://www.youtube.com/embed/NNA2Oa-Q3uI;true;system;2019-02-25 00:00:00.000;system
132;Прохождение игры Transformers 1 (1-2 Миссия);Прохождение игры Transformers 1 (1-2 Миссия);https://www.youtube.com/embed/A5ZAYDB06TE;true;system;2019-02-25 00:00:00.000;system
133;Прохождение игры Mad Burger 2 #1;Прохождение игры Mad Burger 2 #1;https://www.youtube.com/embed/upXQwqzX7_s;true;system;2019-02-25 00:00:00.000;system
134;Прохождение игры Mad Burger 2 #2 - Финал!;Прохождение игры Mad Burger 2 #2 - Финал!;https://www.youtube.com/embed/HEmE1Kt1ag0;true;system;2019-02-25 00:00:00.000;system
135;MAD BURGER GAME FULL WALKTHROUGH;MAD BURGER GAME FULL WALKTHROUGH;https://www.youtube.com/embed/0YGGdvgDuz0;true;system;2019-02-25 00:00:00.000;system
136;The Catapult игра, прохождение, секреты, как пройти, настройки;The Catapult игра, прохождение, секреты, как пройти, настройки;https://www.youtube.com/embed/ur1hlvKlpIc;true;system;2019-02-25 00:00:00.000;system
137;Прохождение игры The catapult;Прохождение игры The catapult;https://www.youtube.com/embed/2HMIC0uue38;true;system;2019-02-25 00:00:00.000;system
138;Прохождение игры Катапульта 2;Прохождение игры Катапульта 2;https://www.youtube.com/embed/cPF_YClfg44;true;system;2019-02-25 00:00:00.000;system
139;Защити Свои Орехи 2 – полное прохождение;Защити Свои Орехи 2 – полное прохождение;https://www.youtube.com/embed/bIKHobom5Ws;true;system;2019-02-25 00:00:00.000;system
140;Defend your nuts Защити свои орехи прохождение;Defend your nuts Защити свои орехи прохождение;https://www.youtube.com/embed/mpU8att1wfw;true;system;2019-02-25 00:00:00.000;system
141;Флеш игры, Защити свои орехи 2, Озвучка от фонаря;Флеш игры, Защити свои орехи 2, Озвучка от фонаря;https://www.youtube.com/embed/BYMRfMBbZvw;true;system;2019-02-25 00:00:00.000;system
142;Defend Your NUTS 2 [ Защити свои орехи 2! ];Defend Your NUTS 2 [ Защити свои орехи 2! ];https://www.youtube.com/embed/aTsQ_XNwgFM;true;system;2019-02-25 00:00:00.000;system
143;✔ КРАСНЫЙ И ЗЕЛЕНЫЙ ЧЕЛЕНДЖ Мультик ИГРА для Детей Red and Green Challenge Walkthrough ✔;✔ КРАСНЫЙ И ЗЕЛЕНЫЙ ЧЕЛЕНДЖ Мультик ИГРА для Детей Red and Green Challenge Walkthrough ✔;https://www.youtube.com/embed/N_gz99yuxnA;true;system;2019-02-25 00:00:00.000;system
144;Красный Шар против Зеленого Короля Red Ball vs Green King Спасение Розочки. Полное прохождение;Красный Шар против Зеленого Короля Red Ball vs Green King Спасение Розочки. Полное прохождение;https://www.youtube.com/embed/oBUmRsbUr0s;true;system;2019-02-25 00:00:00.000;system
145;Игра для детей - УДАРНЫЙ ОТРЯД КОТЯТ - прохождение - Flavios № 4;Игра для детей - УДАРНЫЙ ОТРЯД КОТЯТ - прохождение - Flavios № 4;https://www.youtube.com/embed/AF7pd06Y-Wg;true;system;2019-02-25 00:00:00.000;system
146;Мультик ИГРА для детей - УДАРНЫЙ ОТРЯД КОТЯТ [2];Мультик ИГРА для детей - УДАРНЫЙ ОТРЯД КОТЯТ [2];https://www.youtube.com/embed/ci4G-s-T33s;true;system;2019-02-25 00:00:00.000;system
147;Мультик ИГРА для детей - УДАРНЫЙ ОТРЯД КОТЯТ [2];Мультик ИГРА для детей - УДАРНЫЙ ОТРЯД КОТЯТ [2];https://www.youtube.com/embed/ci4G-s-T33s;true;system;2019-02-25 00:00:00.000;system
148;Ударный Отряд Котят #1 FOXZILLA Повержен! Игровой мультик Детское видео Let's play;Ударный Отряд Котят #1 FOXZILLA Повержен! Игровой мультик Детское видео Let's play;https://www.youtube.com/embed/2mHndfsjlaA;true;system;2019-02-25 00:00:00.000;system
149;ПОЛНОЕ ПРОХОЖДЕНИЕ УДАРНЫЙ ОТРЯД КОТЯТ 3 ЧАСТЬ 3 Мультик ИГРА для детей;ПОЛНОЕ ПРОХОЖДЕНИЕ УДАРНЫЙ ОТРЯД КОТЯТ 3 ЧАСТЬ 3 Мультик ИГРА для детей;https://www.youtube.com/embed/clGAd25eNDI;true;system;2019-02-25 00:00:00.000;system
150;Игра Светлячки;Игра Светлячки;https://www.youtube.com/embed/tpQWL5kZ7pE;true;system;2019-02-25 00:00:00.000;system
151;Игра НОЧНЫЕ СВЕТЛЯЧКИ игра как мультфильм;Игра НОЧНЫЕ СВЕТЛЯЧКИ игра как мультфильм;https://www.youtube.com/embed/2X4YbKHycew;true;system;2019-02-25 00:00:00.000;system
152;Dino Robot Adventure Stego Gold (Приключение робота динозавра: Золотой Стегозавр) - прохождение игры;Dino Robot Adventure Stego Gold (Приключение робота динозавра: Золотой Стегозавр) - прохождение игры;https://www.youtube.com/embed/ABzfq7_xiAc;true;system;2019-02-25 00:00:00.000;system
153;Dino Robot Adventure (Приключения роботов динозавров);Dino Robot Adventure (Приключения роботов динозавров);https://www.youtube.com/embed/1cWWoa6Uh7M;true;system;2019-02-25 00:00:00.000;system
154;Счастливая Обезьянка 4 прохождение Monkey GO Happy 4 walkthrough;Счастливая Обезьянка 4 прохождение Monkey GO Happy 4 walkthrough;https://www.youtube.com/embed/a8oebi7bK2Y;true;system;2019-02-25 00:00:00.000;system
155;Счастливая обезьянка 4 | Monkey GO Happy;Счастливая обезьянка 4 | Monkey GO Happy;https://www.youtube.com/embed/FgDdZf591_g;true;system;2019-02-25 00:00:00.000;system
156;Обзор игры Папа Луи (Пиццерия);Обзор игры Папа Луи (Пиццерия);https://www.youtube.com/embed/M9ywchQT5qM;true;system;2019-02-25 00:00:00.000;system
157;Папа Луи: Печенье и мороженое (Papa’s Scooperia);Папа Луи: Печенье и мороженое (Papa’s Scooperia);https://www.youtube.com/embed/sYZC6reURtw;true;system;2019-02-25 00:00:00.000;system
158;ИГРАЮ В ИГРУ ПАПА ЛУИ:ПИЦЦЕРИЯ (ПРОСТИТЕ ЗА ЗВУК);ИГРАЮ В ИГРУ ПАПА ЛУИ:ПИЦЦЕРИЯ (ПРОСТИТЕ ЗА ЗВУК);https://www.youtube.com/embed/mGUbFaIR2sE;true;system;2019-02-25 00:00:00.000;system
159;Прохождение игры Star Fashion Designer на русском. Часть 11-12. Сан Паоло - Нью Йорк. Gamestowin.;Прохождение игры Star Fashion Designer на русском. Часть 11-12. Сан Паоло - Нью Йорк. Gamestowin.;https://www.youtube.com/embed/L3adNG9bOfc;true;system;2019-02-25 00:00:00.000;system
160;Angelico Complete Walkthrough | CyclumGames;Angelico Complete Walkthrough | CyclumGames;https://www.youtube.com/embed/w5UxoAhhCoM;true;system;2019-02-25 00:00:00.000;system
161;Игра Огонь и Вода Панды | Прохождение ( 2 часть );Игра Огонь и Вода Панды | Прохождение ( 2 часть );https://www.youtube.com/embed/7oy-NNVoaaY;true;system;2019-02-25 00:00:00.000;system
162;Игра Огонь и Вода Панды | Прохождение ( 1 часть );Игра Огонь и Вода Панды | Прохождение ( 1 часть );https://www.youtube.com/embed/_O4zwLZTcrY;true;system;2019-02-25 00:00:00.000;system
163;Игра Огонь и Вода Панды;Игра Огонь и Вода Панды;https://www.youtube.com/embed/jrSj3P5weWc;true;system;2019-02-25 00:00:00.000;system
164;Огонь и Вода Панды (прохождение 5 игра);Огонь и Вода Панды (прохождение 5 игра);https://www.youtube.com/embed/825oHAx-WPk;true;system;2019-02-25 00:00:00.000;system
165;Мини Дэш - прохождение игры / Mini Dash - walkthrough;Мини Дэш - прохождение игры / Mini Dash - walkthrough;https://www.youtube.com/embed/TlpUg3f96SA;true;system;2019-02-25 00:00:00.000;system
166;Mini Dash - Game Walkthrough (full);Mini Dash - Game Walkthrough (full);https://www.youtube.com/embed/DVWphOw6SUE;true;system;2019-02-25 00:00:00.000;system
167;Прохождение игры Mad Dex ( 1 часть);Прохождение игры Mad Dex ( 1 часть);https://www.youtube.com/embed/hSVTZC0Qrr4;true;system;2019-02-25 00:00:00.000;system
168;Построй Мост для Джерри. Игры Том и Джерри. Игры онлайн бесплатно.;Построй Мост для Джерри. Игры Том и Джерри. Игры онлайн бесплатно.;https://www.youtube.com/embed/aPPCweC0Pbg;true;system;2019-02-25 00:00:00.000;system
169;Том и Джерри полный Игры мост том и Джерри Игры;Том и Джерри полный Игры мост том и Джерри Игры;https://www.youtube.com/embed/Ml0p9KjFrRE;true;system;2019-02-25 00:00:00.000;system
170;Играем в онлайн игру Двойной выстрел 2:1 серия;Играем в онлайн игру Двойной выстрел 2:1 серия;https://www.youtube.com/embed/9Rgv2NNotLk;true;system;2019-02-25 00:00:00.000;system
171;Двойной выстрел 2 часть 44-48 уровень;Двойной выстрел 2 часть 44-48 уровень;https://www.youtube.com/embed/TEisU4_Vr00;true;system;2019-02-25 00:00:00.000;system
172;ВТОРЖЕНИЕ 2 - Intrusion 2 #1;ВТОРЖЕНИЕ 2 - Intrusion 2 #1;https://www.youtube.com/embed/HMljcHAvEFs;true;system;2019-02-25 00:00:00.000;system
173;Прохождение игры Вторжение #1 Начало;Прохождение игры Вторжение #1 Начало;https://www.youtube.com/embed/g7e3_4I75Wc;true;system;2019-02-25 00:00:00.000;system
174;Игра Поглощение 🌊 Takeover! Игра - Стратегия. Strategy Game;Игра Поглощение 🌊 Takeover! Игра - Стратегия. Strategy Game;https://www.youtube.com/embed/PAPLxptLM0I;true;system;2019-02-25 00:00:00.000;system
175;Футбольные головы: Чемпионат Испании;Футбольные головы: Чемпионат Испании;https://www.youtube.com/embed/jM9qlmMhghk;true;system;2019-02-25 00:00:00.000;system
176;Rapunzel Mommy Real Makeover (Макияж Рапунцель и ее дочери) - прохождение игры;Rapunzel Mommy Real Makeover (Макияж Рапунцель и ее дочери) - прохождение игры;https://www.youtube.com/embed/mpHVsvy4na4;true;system;2019-02-25 00:00:00.000;system
177;Макияж Рапунцель (Tangled Makeover) - прохождение игры;Макияж Рапунцель (Tangled Makeover) - прохождение игры;https://www.youtube.com/embed/JNIHuh7oH0I;true;system;2019-02-25 00:00:00.000;system
178;Parking Mania (Мания Парковки) видео серия №1;Parking Mania (Мания Парковки) видео серия №1;https://www.youtube.com/embed/bmq9bJO1HZ4;true;system;2019-02-25 00:00:00.000;system
179;Parking Mania. Мастер парковки;Parking Mania. Мастер парковки;https://www.youtube.com/embed/dcgDfj11r0M;true;system;2019-02-25 00:00:00.000;system
180;Игра Зума прохождение уровней 1-3;Игра Зума прохождение уровней 1-3;https://www.youtube.com/embed/HxU6gfC4ZbQ;true;system;2019-02-25 00:00:00.000;system
181;Игра Зума (Zuma) видео прохождения, поединок 1;Игра Зума (Zuma) видео прохождения, поединок 1;https://www.youtube.com/embed/7Uz0rbUS4oU;true;system;2019-02-25 00:00:00.000;system
182;Как играть Зума (Zuma), видео прохождение;Как играть Зума (Zuma), видео прохождение;https://www.youtube.com/embed/VlURhZQutSQ;true;system;2019-02-25 00:00:00.000;system
183;Игры драки, Небесные змеи, победи их;Игры драки, Небесные змеи, победи их;https://www.youtube.com/embed/0p8dSOYpL8k;true;system;2019-02-25 00:00:00.000;system
184;Вкусная планета - Прохождение игры Tasty planet 1;Вкусная планета - Прохождение игры Tasty planet 1;https://www.youtube.com/embed/iczgcmsK1Dk;true;system;2019-02-25 00:00:00.000;system
185;Смотринки: Съедобная планета 2 Let's Play Серия 1;Смотринки: Съедобная планета 2 Let's Play Серия 1;https://www.youtube.com/embed/cpxGeFfpofM;true;system;2019-02-25 00:00:00.000;system
186;СЪЕДОБНАЯ ПЛАНЕТА - ОСЬМИНОГИ ЖРУТ ГОРОДА #2 ♦ Tasty Planet Forever;СЪЕДОБНАЯ ПЛАНЕТА - ОСЬМИНОГИ ЖРУТ ГОРОДА #2 ♦ Tasty Planet Forever;https://www.youtube.com/embed/t711IOMhnTI;true;system;2019-02-25 00:00:00.000;system
187;Съедобная планета - Прохождение игры на русском [#1];Съедобная планета - Прохождение игры на русском [#1];https://www.youtube.com/embed/GVH6ZRLxx_g;true;system;2019-02-25 00:00:00.000;system
188;Rogue Soul (Душа разбойника);Rogue Soul (Душа разбойника);https://www.youtube.com/embed/-PgbluXS-mU;true;system;2019-02-25 00:00:00.000;system
189;Rogue Soul 2 (Душа разбойника 2);Rogue Soul 2 (Душа разбойника 2);https://www.youtube.com/embed/3fjkSmIZYD8;true;system;2019-02-25 00:00:00.000;system
190;Прохождение игры душа разбойника(rogue soul) #3;Прохождение игры душа разбойника(rogue soul) #3;https://www.youtube.com/embed/1bz2ISn9Wig;true;system;2019-02-25 00:00:00.000;system
191;Zayn Malik World Tour (Зейн Малик: мировой тур) - прохождение игры;Zayn Malik World Tour (Зейн Малик: мировой тур) - прохождение игры;https://www.youtube.com/embed/xeORxTTJdw4;true;system;2019-02-25 00:00:00.000;system
192;СИМУЛЯТОР ХУДОЖНИКА - МЫ КРУТЫЕ ТВОРЦЫ ♦ Passpartout: The Starving Artist;СИМУЛЯТОР ХУДОЖНИКА - МЫ КРУТЫЕ ТВОРЦЫ ♦ Passpartout: The Starving Artist;https://www.youtube.com/embed/flS1fLkO_6Q;true;system;2019-02-25 00:00:00.000;system
193;Обзор игры Nail Salon [Делаем Ногти Своей Мечты] для iPhone iPad iPod;Обзор игры Nail Salon [Делаем Ногти Своей Мечты] для iPhone iPad iPod;https://www.youtube.com/embed/3HEhotQdfCU;true;system;2019-02-25 00:00:00.000;system
194;Smash hit прохождение. Класссика. Контрольная точка 1.;Smash hit прохождение. Класссика. Контрольная точка 1.;https://www.youtube.com/embed/jYyypKSWTZI;true;system;2019-02-25 00:00:00.000;system
195;Smash hit Контрольная точка/Уровень 11 Игра (1600+ шаров)(Режим: Классика);Smash hit Контрольная точка/Уровень 11 Игра (1600+ шаров)(Режим: Классика);https://www.youtube.com/embed/kol4LaVghdA;true;system;2019-02-25 00:00:00.000;system
196;Smash Hit IOS (Обзор и полное прохождение бесплатной версии игры + Совет);Smash Hit IOS (Обзор и полное прохождение бесплатной версии игры + Совет);https://www.youtube.com/embed/zf8O7ni2NwU;true;system;2019-02-25 00:00:00.000;system
197;Лего Ниндзяго! ИГРА Восстание Ниндроидов! ПРОХОЖДЕНИЕ игры ЛЕГО НИНДЗЯ ГО для мальчиков! #игры;Лего Ниндзяго! ИГРА Восстание Ниндроидов! ПРОХОЖДЕНИЕ игры ЛЕГО НИНДЗЯ ГО для мальчиков! #игры;https://www.youtube.com/embed/bku3UBHHmPA;true;system;2019-02-25 00:00:00.000;system
198;LEGO Ninjago: Восстание Ниндроидов!;LEGO Ninjago: Восстание Ниндроидов!;https://www.youtube.com/embed/05_KfGDcwgk;true;system;2019-02-25 00:00:00.000;system
199;Супер Марио 3 (звёздная схватка) серия 3 финал;Супер Марио 3 (звёздная схватка) серия 3 финал;https://www.youtube.com/embed/eKgnt4gam-Y;true;system;2019-02-25 00:00:00.000;system
200;PacXon Full Gameplay Walkthrough;PacXon Full Gameplay Walkthrough;https://www.youtube.com/embed/DZDCHsDjgW4;true;system;2019-02-25 00:00:00.000;system
201;Прохождение игры Pac-Xon;Прохождение игры Pac-Xon;https://www.youtube.com/embed/W1FA1zNh2Nk;true;system;2019-02-25 00:00:00.000;system
202;Super Drift 3D Full Gameplay Walkthrough;Super Drift 3D Full Gameplay Walkthrough;https://www.youtube.com/embed/8cHOozBN0ks;true;system;2019-02-25 00:00:00.000;system
203;ЭВОЛЮЦИЯ ЗЛОЙ ДЫРКИ! - Hole.io;ЭВОЛЮЦИЯ ЗЛОЙ ДЫРКИ! - Hole.io;https://www.youtube.com/embed/e0OE5Jlu8JQ;true;system;2019-02-25 00:00:00.000;system
204;ЭВОЛЮЦИЯ ЧЕРНОЙ ДЫРЫ! - Hole.io Новая io Игра;ЭВОЛЮЦИЯ ЧЕРНОЙ ДЫРЫ! - Hole.io Новая io Игра;https://www.youtube.com/embed/-t8Z_8Jzc1U&vl=ru;true;system;2019-02-25 00:00:00.000;system
205;МОЯ ДЫРКА БОЛЬШЕ ВСЕХ - Игра Hole io рекорд. Новая io Игра hole.io;МОЯ ДЫРКА БОЛЬШЕ ВСЕХ - Игра Hole io рекорд. Новая io Игра hole.io;https://www.youtube.com/embed/1CA2QWn61Xw;true;system;2019-02-25 00:00:00.000;system
206;Вилли 1 | Wheely 1 - Прохождение (Walkthrough) - GF4Y.COM;Вилли 1 | Wheely 1 - Прохождение (Walkthrough) - GF4Y.COM;https://www.youtube.com/embed/MpP_aythzts;true;system;2019-02-25 00:00:00.000;system
207;Игра Машинка Вилли (Wheely) - Прохождение;Игра Машинка Вилли (Wheely) - Прохождение;https://www.youtube.com/embed/IgTOeXo92Nc;true;system;2019-02-25 00:00:00.000;system
208;Вилли 2 Прохождение игры Мультик про машинки для детей;Вилли 2 Прохождение игры Мультик про машинки для детей;https://www.youtube.com/embed/yq8S3IcrocQ;true;system;2019-02-25 00:00:00.000;system
209;Прохождение игры Вилли 3 - wheely 3;Прохождение игры Вилли 3 - wheely 3;https://www.youtube.com/embed/r240jWxrV-g;true;system;2019-02-25 00:00:00.000;system
210;Wheely 4 Time Travel (Вилли 4) - прохождение игры;Wheely 4 Time Travel (Вилли 4) - прохождение игры;https://www.youtube.com/embed/rXmhqG_9lSw;true;system;2019-02-25 00:00:00.000;system
211;Wheely 4 Time Travel Вилли 4 - прохождение игры. Все звёзды 1-16;Wheely 4 Time Travel Вилли 4 - прохождение игры. Все звёзды 1-16;https://www.youtube.com/embed/cA9gXCm1ZG8;true;system;2019-02-25 00:00:00.000;system
212;Wheely 5: Armageddon (Вилли 5) - Прохождение за 11 минут;Wheely 5: Armageddon (Вилли 5) - Прохождение за 11 минут;https://www.youtube.com/embed/fBfVxvJwqiM;true;system;2019-02-25 00:00:00.000;system
213;Машинки. Приключения машинки Вилли 5 Армагедон ПОЛНАЯ ВЕРСИЯ Wheely 5 Armageddon Walkthrough.;Машинки. Приключения машинки Вилли 5 Армагедон ПОЛНАЯ ВЕРСИЯ Wheely 5 Armageddon Walkthrough.;https://www.youtube.com/embed/XKajVrXUXzw;true;system;2019-02-25 00:00:00.000;system
214;Вилли 5. Прохождение. Wheely 5;Вилли 5. Прохождение. Wheely 5;https://www.youtube.com/embed/uw39NwYQfTY;true;system;2019-02-25 00:00:00.000;system
215;Вилли 6: СКАЗКА ПОЛНАЯ ВЕРСИЯ / Wheely 6: Fairytale walkthrough Full.;Вилли 6: СКАЗКА ПОЛНАЯ ВЕРСИЯ / Wheely 6: Fairytale walkthrough Full.;https://www.youtube.com/embed/HdyNoAKPw9Q;true;system;2019-02-25 00:00:00.000;system
216;Прохождение игры Вилли 7;Прохождение игры Вилли 7;https://www.youtube.com/embed/f1ouhaa-eco;true;system;2019-02-25 00:00:00.000;system
217;Harry Quantum: TV Go Home - WalkThrough;Harry Quantum: TV Go Home - WalkThrough;https://www.youtube.com/embed/-PxixzCAN5E;true;system;2019-02-25 00:00:00.000;system
218;Harry Quantum 2 walkthrough 100%;Harry Quantum 2 walkthrough 100%;https://www.youtube.com/embed/xZ-CrmySoGI;true;system;2019-02-25 00:00:00.000;system
219;Wheely 8 Aliens (Вилли 8: пришельцы);Wheely 8 Aliens (Вилли 8: пришельцы);https://www.youtube.com/embed/kzGAyMRQhIk;true;system;2019-02-25 00:00:00.000;system
220;Игра Block Craft Играть;Игра Block Craft Играть;https://www.youtube.com/embed/uPx-WxwmARE;true;system;2019-02-25 00:00:00.000;system
221;Kage - ИГРА ПРО НИНДЗЯ | ПРОХОЖДЕНИЕ НА ДЕНДИ | Детская игра;Kage - ИГРА ПРО НИНДЗЯ | ПРОХОЖДЕНИЕ НА ДЕНДИ | Детская игра;https://www.youtube.com/embed/0Nfa7Ne0noI;true;system;2019-02-25 00:00:00.000;system
222;Escape the Witch House Walkthrough;Escape the Witch House Walkthrough;https://www.youtube.com/embed/7fpchePgwdE;true;system;2019-02-25 00:00:00.000;system
223;Clicker Heroes прохождение НАЧАЛО (1 серия);Clicker Heroes прохождение НАЧАЛО (1 серия);https://www.youtube.com/embed/iDA4horPhSk;true;system;2019-02-25 00:00:00.000;system
224;Clicker Heroes - Быстрый гайд #1 |Обзор|;Clicker Heroes - Быстрый гайд #1 |Обзор|;https://www.youtube.com/embed/mrDAel7ddO0;true;system;2019-02-25 00:00:00.000;system
225;Полный гайд по Clicker Heroes / сентябрь 2018;Полный гайд по Clicker Heroes / сентябрь 2018;https://www.youtube.com/embed/3eL5gqKccv0;true;system;2019-02-25 00:00:00.000;system
226;Clicker Heroes 2 Обзор Кликер Героев! Кликер которого мы заслуживаем???;Clicker Heroes 2 Обзор Кликер Героев! Кликер которого мы заслуживаем???;https://www.youtube.com/embed/4-ZithcWySs;true;system;2019-02-25 00:00:00.000;system
227;Мини игра КАРМАННЫЙ НИНДЗЯ На сколько ты силён?;Мини игра КАРМАННЫЙ НИНДЗЯ На сколько ты силён?;https://www.youtube.com/embed/iaO3L0wNnqY;true;system;2019-02-25 00:00:00.000;system
228;играю в Майнкрафт мир крафта 2;играю в Майнкрафт мир крафта 2;https://www.youtube.com/embed/7lUEeV8lXLU;true;system;2019-02-25 00:00:00.000;system
229;Копия майнкрафта . Обзор игры;Копия майнкрафта . Обзор игры;https://www.youtube.com/embed/pHO4xlpduv8;true;system;2019-02-25 00:00:00.000;system
230;Копия майнкрафта. Обзор игры;Копия майнкрафта. Обзор игры;https://www.youtube.com/embed/Z1cDFbPLM3M;true;system;2019-02-25 00:00:00.000;system
231;Большой Герой 6 Город Приключения;Большой Герой 6 Город Приключения;https://www.youtube.com/embed/UgKh_Hr6_Tw;true;system;2019-02-25 00:00:00.000;system
232;Big Hero 6 City Adventure (Город героев: Городское приключение) - прохождение игры;Big Hero 6 City Adventure (Город героев: Городское приключение) - прохождение игры;https://www.youtube.com/embed/7UE_TbUG73s;true;system;2019-02-25 00:00:00.000;system
233;Прохождение Игры Город героев: Битва ботов. LEVEL 1 : Big Hero 6 Bot Fight Gameplay Level 1;Прохождение Игры Город героев: Битва ботов. LEVEL 1 : Big Hero 6 Bot Fight Gameplay Level 1;https://www.youtube.com/embed/7T7-Wl_AEO4;true;system;2019-02-25 00:00:00.000;system
234;New Super Mario Bros U. Прохождение - #1;New Super Mario Bros U. Прохождение - #1;https://www.youtube.com/embed/mUlV-HxhYBI;true;system;2019-02-25 00:00:00.000;system
235;Играю в игру волшебное пианино;Играю в игру волшебное пианино;https://www.youtube.com/embed/u3Km1DLL8FA;true;system;2019-02-25 00:00:00.000;system
236;Осада пустоши - WASTELAND SIEGE;Осада пустоши - WASTELAND SIEGE;https://www.youtube.com/embed/-A4RrxnF4nU;true;system;2019-02-25 00:00:00.000;system
237;Прохождение игры Три панды;Прохождение игры Три панды;https://www.youtube.com/embed/1OKLmViwLEE;true;system;2019-02-25 00:00:00.000;system
238;3 Панды 2 Ночь. 3 Pandas 2 Night. Прохождение полное.;3 Панды 2 Ночь. 3 Pandas 2 Night. Прохождение полное.;https://www.youtube.com/embed/EzZuIKdvPz8;true;system;2019-02-25 00:00:00.000;system
239;Игра 3 Панды 3 Pandas Прохождение;Игра 3 Панды 3 Pandas Прохождение;https://www.youtube.com/embed/F9pRkN-rDkw;true;system;2019-02-25 00:00:00.000;system
240;Прохождение игры 3 панды в Фантазии;Прохождение игры 3 панды в Фантазии;https://www.youtube.com/embed/P3h8-lirtEU;true;system;2019-02-25 00:00:00.000;system
241;Прохождение игры Три панды в Японии;Прохождение игры Три панды в Японии;https://www.youtube.com/embed/C5Mv80GiXfs;true;system;2019-02-25 00:00:00.000;system
242;Видео прохождения игры 3 панды в Бразилии;Видео прохождения игры 3 панды в Бразилии;https://www.youtube.com/embed/nzQGldFpsvk;true;system;2019-02-25 00:00:00.000;system
243;Безжалостные Панды Ruthless Pandas ПАНДЫ ПРОТИВ МИШЕК игра мультик Полное прохождение;Безжалостные Панды Ruthless Pandas ПАНДЫ ПРОТИВ МИШЕК игра мультик Полное прохождение;https://www.youtube.com/embed/93hYWxzLfyQ;true;system;2019-02-25 00:00:00.000;system
244;Pandas in the Desert (Панды в пустыне) - прохождение игры;Pandas in the Desert (Панды в пустыне) - прохождение игры;https://www.youtube.com/embed/-ZtPomhFA08;true;system;2019-02-25 00:00:00.000;system
245;Огонь и Вода Панды (прохождение 5 игра);Огонь и Вода Панды (прохождение 5 игра);https://www.youtube.com/embed/825oHAx-WPk;true;system;2019-02-25 00:00:00.000;system
246;Прохождение Грабитель Боб / Bob the Robber Walkthrough;Прохождение Грабитель Боб / Bob the Robber Walkthrough;https://www.youtube.com/embed/xK-fz6Hdcdg;true;system;2019-02-25 00:00:00.000;system
247;Прохождение Грабитель Боб 2 / Bob the Robber 2 Walkthrough;Прохождение Грабитель Боб 2 / Bob the Robber 2 Walkthrough;https://www.youtube.com/embed/jdE7VMR2Beo;true;system;2019-02-25 00:00:00.000;system
248;ГРАБИТЕЛЬ БОБ 3 ПРОХОЖДЕНИЕ ИГРЫ ДЛЯ ДЕТЕЙ (Смотреть видео прохождения игры про воришку на русском);ГРАБИТЕЛЬ БОБ 3 ПРОХОЖДЕНИЕ ИГРЫ ДЛЯ ДЕТЕЙ (Смотреть видео прохождения игры про воришку на русском);https://www.youtube.com/embed/rM98m1JpXew;true;system;2019-02-25 00:00:00.000;system
249;Игра Грабитель Боб 4: Россия;Игра Грабитель Боб 4: Россия;https://www.youtube.com/embed/ff3S12gO3Ro;true;system;2019-02-25 00:00:00.000;system
250;Грабитель Боб 5: Приключения в храме (Bob The Robber 5 The Temple Adventure);Грабитель Боб 5: Приключения в храме (Bob The Robber 5 The Temple Adventure);https://www.youtube.com/embed/V5Wzz5D1NhA;true;system;2019-02-25 00:00:00.000;system
251;- Robbery Bob - Walkthrough part 6 Secret Labs | Грабитель Боб Секретные лаборатории Прохождение #6;- Robbery Bob - Walkthrough part 6 Secret Labs | Грабитель Боб Секретные лаборатории Прохождение #6;https://www.youtube.com/embed/PVrqaHeI1qo;true;system;2019-02-25 00:00:00.000;system
252;- Robbery Bob - Walkthrough part 7 Secret Labs | Грабитель Боб Секретные лаборатории Прохождение #7;- Robbery Bob - Walkthrough part 7 Secret Labs | Грабитель Боб Секретные лаборатории Прохождение #7;https://www.youtube.com/embed/b64a6klXuBg;true;system;2019-02-25 00:00:00.000;system
253;Barbie and the Three Musketeers / Барби и Три Мушкетера;Barbie and the Three Musketeers / Барби и Три Мушкетера;https://www.youtube.com/embed/gl3JTWSugck;true;system;2019-02-25 00:00:00.000;system
254;Мистер Бри возвращается домой;Мистер Бри возвращается домой;https://www.youtube.com/embed/bRKzWNYrevA;true;system;2019-02-25 00:00:00.000;system
255;Peppa Pig Puzzle. Свинка Пеппа - Пазлы. Смотреть прохождение игры | Peppa Pig russian;Peppa Pig Puzzle. Свинка Пеппа - Пазлы. Смотреть прохождение игры | Peppa Pig russian;https://www.youtube.com/embed/B7-NWcV1K54;true;system;2019-02-25 00:00:00.000;system
256;Свинка Пеппа, пазлы ▬ Peppa Pig, Puzzle ▬ игра для детей;Свинка Пеппа, пазлы ▬ Peppa Pig, Puzzle ▬ игра для детей;https://www.youtube.com/embed/vpablurcLSA;true;system;2019-02-25 00:00:00.000;system
257;Свинка Пеппа: Набор Раскрасок/Peppa Pig color;Свинка Пеппа: Набор Раскрасок/Peppa Pig color;https://www.youtube.com/embed/IwyBqRQxsBM;true;system;2019-02-25 00:00:00.000;system
258;Свинка Пеппа Убирает в Комнате Мультфильм Свинка Пеппа. Игра для Малышей;Свинка Пеппа Убирает в Комнате Мультфильм Свинка Пеппа. Игра для Малышей;https://www.youtube.com/embed/0e2-pbO_WQc;true;system;2019-02-25 00:00:00.000;system
259;Свинка Пеппа - Убирает в Ванне Peppa Pig;Свинка Пеппа - Убирает в Ванне Peppa Pig;https://www.youtube.com/embed/viSONG1rIJM;true;system;2019-02-25 00:00:00.000;system
260;свинка Пеппа наряжает елку;свинка Пеппа наряжает елку;https://www.youtube.com/embed/iahqrPqJ5Ag;true;system;2019-02-25 00:00:00.000;system
261;Peppa Pig Одень Свинку Пеппу ко Дню Матери;Peppa Pig Одень Свинку Пеппу ко Дню Матери;https://www.youtube.com/embed/kPi3i7oy8Zg;true;system;2019-02-25 00:00:00.000;system
262;Уход за Хелло Китти (Hello Kitty Care) - прохождение игры;Уход за Хелло Китти (Hello Kitty Care) - прохождение игры;https://www.youtube.com/embed/gryCA8PrEF8;true;system;2019-02-25 00:00:00.000;system
263;Hello Kitty Origami Class - Hello Kitty Games: Hello Kitty Origami Class! Kids Play Palace;Hello Kitty Origami Class - Hello Kitty Games: Hello Kitty Origami Class! Kids Play Palace;https://www.youtube.com/embed/jdZd9hZRAV8;true;system;2019-02-25 00:00:00.000;system
264;Уборка Хелло Китти;Уборка Хелло Китти;https://www.youtube.com/embed/WOTjfknpuH8;true;system;2019-02-25 00:00:00.000;system
265;Hello Kitty's Pink iPhone (Розовый айфон Хелло Китти) - прохождение игры;Hello Kitty's Pink iPhone (Розовый айфон Хелло Китти) - прохождение игры;https://www.youtube.com/embed/D33PqvZqOy0;true;system;2019-02-25 00:00:00.000;system
266;Розовый айфон, Хелло Китти - прохождение игры, игры для детей;Розовый айфон, Хелло Китти - прохождение игры, игры для детей;https://www.youtube.com/embed/xZJzN23Kzm0;true;system;2019-02-25 00:00:00.000;system
267;Hello Kitty Hide And Seek (Хелло Китти прятки) - прохождение игры;Hello Kitty Hide And Seek (Хелло Китти прятки) - прохождение игры;https://www.youtube.com/embed/fUmkZqEq1Ao;true;system;2019-02-25 00:00:00.000;system
268;Хелло Китти играет в Прятки (Hello Kitty Hide and Seek);Хелло Китти играет в Прятки (Hello Kitty Hide and Seek);https://www.youtube.com/embed/yOPBhM6Bw2w;true;system;2019-02-25 00:00:00.000;system
269;Мультик ИГРА для детей - УДАРНЫЙ ОТРЯД КОТЯТ [2];Мультик ИГРА для детей - УДАРНЫЙ ОТРЯД КОТЯТ [2];https://www.youtube.com/embed/ci4G-s-T33s;true;system;2019-02-25 00:00:00.000;system
270;Игра Ударный Отряд Котят 2 Прохождение всех Уровней;Игра Ударный Отряд Котят 2 Прохождение всех Уровней;https://www.youtube.com/embed/VmfFD8PrQ_8;true;system;2019-02-25 00:00:00.000;system
271;ударный отряд котят 2 прохождение (1-4);ударный отряд котят 2 прохождение (1-4);https://www.youtube.com/embed/q67Lj76JnTM;true;system;2019-02-25 00:00:00.000;system
272;ПОЛНОЕ ПРОХОЖДЕНИЕ УДАРНЫЙ ОТРЯД КОТЯТ 3 ЧАСТЬ 3 Мультик ИГРА для детей;ПОЛНОЕ ПРОХОЖДЕНИЕ УДАРНЫЙ ОТРЯД КОТЯТ 3 ЧАСТЬ 3 Мультик ИГРА для детей;https://www.youtube.com/embed/clGAd25eNDI;true;system;2019-02-25 00:00:00.000;system
273;УДАРНЫЙ ОТРЯД КОТИКОВ 3!;УДАРНЫЙ ОТРЯД КОТИКОВ 3!;https://www.youtube.com/embed/9t8aUnt1XFQ;true;system;2019-02-25 00:00:00.000;system
274;ИГРА БОЕВЫЕ КОТЯТА ПОСЛЕДНЯЯ БИТВА #4 - Ударный Отряд Котят босс;ИГРА БОЕВЫЕ КОТЯТА ПОСЛЕДНЯЯ БИТВА #4 - Ударный Отряд Котят босс;https://www.youtube.com/embed/TIzsgIm-tHI;true;system;2019-02-25 00:00:00.000;system
275;Флеш игры - Ударный отряд котят 4 - Лига героев - Озвучка от фонаря;Флеш игры - Ударный отряд котят 4 - Лига героев - Озвучка от фонаря;https://www.youtube.com/embed/wyjilo-Nqn4;true;system;2019-02-25 00:00:00.000;system
276;ударный отряд котят 4 лига чемпионов(читы);ударный отряд котят 4 лига чемпионов(читы);https://www.youtube.com/embed/is35hKXa4vw;true;system;2019-02-25 00:00:00.000;system
277;Игра - Ударний отряд котят 4 Лига чемпионов(2);Игра - Ударний отряд котят 4 Лига чемпионов(2);https://www.youtube.com/embed/EJMExUFT1ak;true;system;2019-02-25 00:00:00.000;system
278;Игра МУЛЬТИК Куриный Дом #1. Смотреть ИГРУ про ЗЛЫХ ПТИЧЕК. Прохождение ИГРЫ для детей;Игра МУЛЬТИК Куриный Дом #1. Смотреть ИГРУ про ЗЛЫХ ПТИЧЕК. Прохождение ИГРЫ для детей;https://www.youtube.com/embed/zQSrdRAUICQ;true;system;2019-02-25 00:00:00.000;system
279;Прохождение Donut County #2 Куриный дом;Прохождение Donut County #2 Куриный дом;https://www.youtube.com/embed/a9PmbXcP91s;true;system;2019-02-25 00:00:00.000;system
280;Игра МУЛЬТИК Куриный Дом #2. Смотреть ИГРУ про ЗЛЫХ ПТИЧЕК. Прохождение ИГРЫ для детей;Игра МУЛЬТИК Куриный Дом #2. Смотреть ИГРУ про ЗЛЫХ ПТИЧЕК. Прохождение ИГРЫ для детей;https://www.youtube.com/embed/YD2dATZ_51Y;true;system;2019-02-25 00:00:00.000;system
281;Игра МУЛЬТИК Куриный Дом #3. Смотреть ИГРУ про ЗЛЫХ ПТИЧЕК. Прохождение ИГРЫ для детей;Игра МУЛЬТИК Куриный Дом #3. Смотреть ИГРУ про ЗЛЫХ ПТИЧЕК. Прохождение ИГРЫ для детей;https://www.youtube.com/embed/1RXi9nj5kiA;true;system;2019-02-25 00:00:00.000;system
282;БАШНЯ СВОБОДЫ Вторжение 2 / FREEDOM TOWER THE INVASION 2 / Флеш игра;БАШНЯ СВОБОДЫ Вторжение 2 / FREEDOM TOWER THE INVASION 2 / Флеш игра;https://www.youtube.com/embed/q5hLmFr_lBg;true;system;2019-02-25 00:00:00.000;system
283;Башня: вторжение / Urban Dreams VLOG #16;Башня: вторжение / Urban Dreams VLOG #16;https://www.youtube.com/embed/2xBevAcQosY;true;system;2019-02-25 00:00:00.000;system
284;Bad Viking: Episode I - The Curse of the Mushroom King -- Walkthrough;Bad Viking: Episode I - The Curse of the Mushroom King -- Walkthrough;https://www.youtube.com/embed/8UOhLbE42Mw;true;system;2019-02-25 00:00:00.000;system
285;УЧИМСЯ ЛЕТАТЬ, СОЗДАЕМ ЛЕТАТЕЛЬНЫЕ АППАРАТ ♦ Learn 2 Fly;УЧИМСЯ ЛЕТАТЬ, СОЗДАЕМ ЛЕТАТЕЛЬНЫЕ АППАРАТ ♦ Learn 2 Fly;https://www.youtube.com/embed/7sQeTXkZJe8;true;system;2019-02-25 00:00:00.000;system
286;Я НАУЧИЛ ПИНГВИНА ЛЕТАТЬ! - Learn to Fly;Я НАУЧИЛ ПИНГВИНА ЛЕТАТЬ! - Learn to Fly;https://www.youtube.com/embed/sucJvOblXcw;true;system;2019-02-25 00:00:00.000;system
287;Прохождение игры Огонь и Вода 3: Ледяной Храм (ВСЕ УРОВНИ);Прохождение игры Огонь и Вода 3: Ледяной Храм (ВСЕ УРОВНИ);https://www.youtube.com/embed/QdLRTpD6Pc8;true;system;2019-02-25 00:00:00.000;system
288;Прохождение игры Огонь и Вода 2: Светлый Храм (ВСЕ УРОВНИ);Прохождение игры Огонь и Вода 2: Светлый Храм (ВСЕ УРОВНИ);https://www.youtube.com/embed/a3r6aUqAlhs;true;system;2019-02-25 00:00:00.000;system
289;Прохождение игры Огонь и Вода 1: Лесной Храм (ВСЕ УРОВНИ);Прохождение игры Огонь и Вода 1: Лесной Храм (ВСЕ УРОВНИ);https://www.youtube.com/embed/dyrcf0mHnBs;true;system;2019-02-25 00:00:00.000;system
290;Огонь и Вода 3: в Ледяном Храме прохождение;Огонь и Вода 3: в Ледяном Храме прохождение;https://www.youtube.com/embed/QYnFSyVoDuE;true;system;2019-02-25 00:00:00.000;system
291;Том и Анжела целуются. Страстные поцелуи.;Том и Анжела целуются. Страстные поцелуи.;https://www.youtube.com/embed/mvhMelnRNb4;true;system;2019-02-25 00:00:00.000;system
292;Малыш Том в Парикмахерской! Серия 1! ВОТ ЭТО ПРИЧЕСКА;Малыш Том в Парикмахерской! Серия 1! ВОТ ЭТО ПРИЧЕСКА;https://www.youtube.com/embed/s3g6qrFwxbw;true;system;2019-02-25 00:00:00.000;system
293;ГОВОРЯЩИЙ ТОМ ХЭЛЛОУИН(1);ГОВОРЯЩИЙ ТОМ ХЭЛЛОУИН(1);https://www.youtube.com/embed/jnr_0gcqAYU;true;system;2019-02-25 00:00:00.000;system
294;Talking Tom Halloween Говорящий кот Том Хэллоуин;Talking Tom Halloween Говорящий кот Том Хэллоуин;https://www.youtube.com/embed/yMKsKd4OhjY;true;system;2019-02-25 00:00:00.000;system
295;Игра Мультик Анжела Лечит Зубы - Angela At The Dentist || Milana Plays;Игра Мультик Анжела Лечит Зубы - Angela At The Dentist || Milana Plays;https://www.youtube.com/embed/26_q1u2A3QU;true;system;2019-02-25 00:00:00.000;system
296;У Анжелы болит зуб! Кошка Анжела у стоматолога игры для детей;У Анжелы болит зуб! Кошка Анжела у стоматолога игры для детей;https://www.youtube.com/embed/ZAw2_4eMmb8;true;system;2019-02-25 00:00:00.000;system
297;Игра Свадьба Тома и Анжелы Игры для Детей;Игра Свадьба Тома и Анжелы Игры для Детей;https://www.youtube.com/embed/OtC8qhKZn7g;true;system;2019-02-25 00:00:00.000;system
298;Wedding Talking Tom and Talking Angela Свадьба Тома и Анжелы;Wedding Talking Tom and Talking Angela Свадьба Тома и Анжелы;https://www.youtube.com/embed/4F3JmJVNdcU;true;system;2019-02-25 00:00:00.000;system
299;Пазл Томас и его друзья. Паровозик Томас и его друзья. Puzzle Thomas  Friends Video Game;Пазл Томас и его друзья. Паровозик Томас и его друзья. Puzzle Thomas  Friends Video Game;https://www.youtube.com/embed/hvg-AdT-fII;true;system;2019-02-25 00:00:00.000;system
300;Игра Улитка Боб 1 - Онлайн (онлайн игра прохождение);Игра Улитка Боб 1 - Онлайн (онлайн игра прохождение);https://www.youtube.com/embed/W_0Ay4R7jBw;true;system;2019-02-25 00:00:00.000;system
301;прохождение игры улитка боб 2;прохождение игры улитка боб 2;https://www.youtube.com/embed/8ZnrQDGTZb0;true;system;2019-02-25 00:00:00.000;system
302;Улитка Боб 3 - Египет Полное Прохождение игры / Snail Bob 3 - Egypt Journey FULL VERSION;Улитка Боб 3 - Египет Полное Прохождение игры / Snail Bob 3 - Egypt Journey FULL VERSION;https://www.youtube.com/embed/chx9ZIy37l0;true;system;2019-02-25 00:00:00.000;system
303;Улитка Боб 4 в Космосе Прохождение;Улитка Боб 4 в Космосе Прохождение;https://www.youtube.com/embed/VXvCtxOx91E;true;system;2019-02-25 00:00:00.000;system
304;Улитка боб 5 история любви / Snail bob 5 Love story all levels;Улитка боб 5 история любви / Snail bob 5 Love story all levels;https://www.youtube.com/embed/tHbx24Q-g8A;true;system;2019-02-25 00:00:00.000;system
305;Улитка Боб 6 Зимняя история Полное Прохождение игры / Snail Bob 6 Winter story;Улитка Боб 6 Зимняя история Полное Прохождение игры / Snail Bob 6 Winter story;https://www.youtube.com/embed/cqTHBA4tOAg;true;system;2019-02-25 00:00:00.000;system
306;Улитка Боб 7 Фантастическая история Snail Bob 7 Fantasy Story 2 серия;Улитка Боб 7 Фантастическая история Snail Bob 7 Fantasy Story 2 серия;https://www.youtube.com/embed/o-MaJmCg33g;true;system;2019-02-25 00:00:00.000;system
307;Snail Bob 8. Island Story. All Level 1-30 Walkthrough / Улитка Боб 8. Остров. Прохождение;Snail Bob 8. Island Story. All Level 1-30 Walkthrough / Улитка Боб 8. Остров. Прохождение;https://www.youtube.com/embed/ADEtlPe9hS4;true;system;2019-02-25 00:00:00.000;system
308;Игра Злая Свинья Украла Яйца;Игра Злая Свинья Украла Яйца;https://www.youtube.com/embed/bEg7q2OirWA;true;system;2019-02-25 00:00:00.000;system
309;Злые птички в космосе игра - Angry Birds Space;Злые птички в космосе игра - Angry Birds Space;https://www.youtube.com/embed/y-NcSfo0TL8;true;system;2019-02-25 00:00:00.000;system
310;Обзор игры Angry Birds Space HD [Злые Птички в Космосе] для iPhone/iPad/iPod;Обзор игры Angry Birds Space HD [Злые Птички в Космосе] для iPhone/iPad/iPod;https://www.youtube.com/embed/dImADefayGA;true;system;2019-02-25 00:00:00.000;system
311;Обзор игры Angry Birds Space HD [Злые Птички в Космосе] для iPhone/iPad/iPod;Обзор игры Angry Birds Space HD [Злые Птички в Космосе] для iPhone/iPad/iPod;https://www.youtube.com/embed/dImADefayGA;true;system;2019-02-25 00:00:00.000;system
312;Злые птички в космосе;Злые птички в космосе;https://www.youtube.com/embed/OHNA9SqQOuA;true;system;2019-02-25 00:00:00.000;system
313;Энгри Бердс Гонки Злые Птички Го прохождение и обзор игры на русском языке смотреть мультик онлайн.;Энгри Бердс Гонки Злые Птички Го прохождение и обзор игры на русском языке смотреть мультик онлайн.;https://www.youtube.com/embed/kRAzLNq9LTA;true;system;2019-02-25 00:00:00.000;system
314;ИГРА Злые птички Гонки! Злые птички едут на перегонки Часть 7! Angry Birds! Прохождение игры #игра;ИГРА Злые птички Гонки! Злые птички едут на перегонки Часть 7! Angry Birds! Прохождение игры #игра;https://www.youtube.com/embed/onskHDFBPMk;true;system;2019-02-25 00:00:00.000;system
315;Игра Злые Птички Против Зомби Ч1 Angry Birds;Игра Злые Птички Против Зомби Ч1 Angry Birds;https://www.youtube.com/embed/6HHjS60PzXM;true;system;2019-02-25 00:00:00.000;system
316;Злые Птички против Зомби;Злые Птички против Зомби;https://www.youtube.com/embed/MKqdtVMag7Y;true;system;2019-02-25 00:00:00.000;system
317;Прохождение игры - Злые птички против зомби;Прохождение игры - Злые птички против зомби;https://www.youtube.com/embed/N8aEurxlfZY;true;system;2019-02-25 00:00:00.000;system
318;Care Baby Spongebob (Уход за Губкой Бобом) - прохождение игры;Care Baby Spongebob (Уход за Губкой Бобом) - прохождение игры;https://www.youtube.com/embed/hr46pj4Vg_8;true;system;2019-02-25 00:00:00.000;system
319;Драки Губка Боб (Super Brawl 3);Драки Губка Боб (Super Brawl 3);https://www.youtube.com/embed/NpAdj9AvH18;true;system;2019-02-25 00:00:00.000;system
320;Super Brawl 3-Флеш Игры;Super Brawl 3-Флеш Игры;https://www.youtube.com/embed/KxRssIcuPH0;true;system;2019-02-25 00:00:00.000;system
321;Спанч Боб реальная драка 3 - Super Brawl 3;Спанч Боб реальная драка 3 - Super Brawl 3;https://www.youtube.com/embed/1BMYCfLarYc;true;system;2019-02-25 00:00:00.000;system
322;Spongebob Haircuts (Губка Боб: прически) - прохождение игры;Spongebob Haircuts (Губка Боб: прически) - прохождение игры;https://www.youtube.com/embed/ItQgOQm_Rls;true;system;2019-02-25 00:00:00.000;system
323;Играем в игру Губка Боб Чистит Зубы;Играем в игру Губка Боб Чистит Зубы;https://www.youtube.com/embed/sp-12pdCc-Y;true;system;2019-02-25 00:00:00.000;system
324;SpongeBob Tooth Problems (Спанч Боб лечит зубы) - прохождение игры;SpongeBob Tooth Problems (Спанч Боб лечит зубы) - прохождение игры;https://www.youtube.com/embed/YSwHeESvZk8;true;system;2019-02-25 00:00:00.000;system
325;Игра Губка Боб Лечит Нос! ГУБКА БОБ В БОЛЬНИЦЕ! Прохождение игры Спанч БОБ! Игры для МАЛЬЧИКОВ!#игры;Игра Губка Боб Лечит Нос! ГУБКА БОБ В БОЛЬНИЦЕ! Прохождение игры Спанч БОБ! Игры для МАЛЬЧИКОВ!#игры;https://www.youtube.com/embed/QClQn_3BGxc;true;system;2019-02-25 00:00:00.000;system
326;SpongeBob Nose Doctor (Губка Боб у ЛОРа) - прохождение игры;SpongeBob Nose Doctor (Губка Боб у ЛОРа) - прохождение игры;https://www.youtube.com/embed/84E2dfxCPVM;true;system;2019-02-25 00:00:00.000;system
327;МАЛЫШ СПАНЧ БОБ!! - Care Baby SpongeBob;МАЛЫШ СПАНЧ БОБ!! - Care Baby SpongeBob;https://www.youtube.com/embed/pohSjxvuya8;true;system;2019-02-25 00:00:00.000;system
328;Frozen Elsa Wedding Cake (Холодное сердце: Свадебный торт для Эльзы) - прохождение игры;Frozen Elsa Wedding Cake (Холодное сердце: Свадебный торт для Эльзы) - прохождение игры;https://www.youtube.com/embed/eFkH7Ilz77c;true;system;2019-02-25 00:00:00.000;system
329;Elsa Beauty Salon (Эльза салон красоты) - прохождение игры;Elsa Beauty Salon (Эльза салон красоты) - прохождение игры;https://www.youtube.com/embed/Fx3JBtyliBc;true;system;2019-02-25 00:00:00.000;system
330;Elsa Beauty Salon (Холодное сердце: Салон красоты для Эльзы) - прохождение игры;Elsa Beauty Salon (Холодное сердце: Салон красоты для Эльзы) - прохождение игры;https://www.youtube.com/embed/EhT-WQeFPgU;true;system;2019-02-25 00:00:00.000;system
331;Игра Готовим Еду с Эльзой;Игра Готовим Еду с Эльзой;https://www.youtube.com/embed/scPHpSFknbg;true;system;2019-02-25 00:00:00.000;system
332;Холодное Сердце Готовит Еду;Холодное Сердце Готовит Еду;https://www.youtube.com/embed/9gJnN8qanuw;true;system;2019-02-25 00:00:00.000;system
333;Elsa Cooking Upside Down Pineapple Cake (Холодное сердце: Эльза готовит ананасовый торт);Elsa Cooking Upside Down Pineapple Cake (Холодное сердце: Эльза готовит ананасовый торт);https://www.youtube.com/embed/WeFjp6xvYF4;true;system;2019-02-25 00:00:00.000;system
334;Квантовый Патруль - Пиключенческая-стрелялка для мальчиков;Квантовый Патруль - Пиключенческая-стрелялка для мальчиков;https://www.youtube.com/embed/qTKe_E6DMLU;true;system;2019-02-25 00:00:00.000;system
335;Стрелялка Квантовый патруль;Стрелялка Квантовый патруль;https://www.youtube.com/embed/NMoCimcR1Ig;true;system;2019-02-25 00:00:00.000;system
336;Играем в Квантовый патруль;Играем в Квантовый патруль;https://www.youtube.com/embed/VbmYJebDq-A;true;system;2019-02-25 00:00:00.000;system
337;Игра Супермен из офиса онлайн.....;Игра Супермен из офиса онлайн.....;https://www.youtube.com/embed/x2QJ0gOZMN0;true;system;2019-02-25 00:00:00.000;system
338;Игра Супермен из офиса Как сломать свой комп;Игра Супермен из офиса Как сломать свой комп;https://www.youtube.com/embed/CuUWHH2omvg;true;system;2019-02-25 00:00:00.000;system
339;Игра Светлячки;Игра Светлячки;https://www.youtube.com/embed/tpQWL5kZ7pE;true;system;2019-02-25 00:00:00.000;system
340;Игра НОЧНЫЕ СВЕТЛЯЧКИ игра как мультфильм;Игра НОЧНЫЕ СВЕТЛЯЧКИ игра как мультфильм;https://www.youtube.com/embed/2X4YbKHycew;true;system;2019-02-25 00:00:00.000;system
341;Весёлая ферма Прохождение с комментариями;Весёлая ферма Прохождение с комментариями;https://www.youtube.com/embed/lPtXlAvqPB0;true;system;2019-02-25 00:00:00.000;system
342;Как играть в Весёлая Ферма 1 (прохождение уровней, геймплей);Как играть в Весёлая Ферма 1 (прохождение уровней, геймплей);https://www.youtube.com/embed/uU6O89n6z2A;true;system;2019-02-25 00:00:00.000;system
343;прохождение игры Веселая Ферма (№1);прохождение игры Веселая Ферма (№1);https://www.youtube.com/embed/EkObAGZ7TIs;true;system;2019-02-25 00:00:00.000;system
344;прохождение игры Веселая Ферма 2 (№3);прохождение игры Веселая Ферма 2 (№3);https://www.youtube.com/embed/aDMyMHsjWGc;true;system;2019-02-25 00:00:00.000;system
345;Прохождение игры - Веселая ферма 4 ( Farm Frenzy 4). Уровень 16;Прохождение игры - Веселая ферма 4 ( Farm Frenzy 4). Уровень 16;https://www.youtube.com/embed/Z-B3dxM6c_A;true;system;2019-02-25 00:00:00.000;system
346;Farm Frenzy Pizza Party Award (Slowly) Веселая ферма Печем пиццу Награда (За неторопливость);Farm Frenzy Pizza Party Award (Slowly) Веселая ферма Печем пиццу Награда (За неторопливость);https://www.youtube.com/embed/9GIPAnqw2LA;true;system;2019-02-25 00:00:00.000;system
347;Farm Frenzy Pizza Party only GOLD American Street 5 (86) Веселая ферма Печем пиццу Американская 5;Farm Frenzy Pizza Party only GOLD American Street 5 (86) Веселая ферма Печем пиццу Американская 5;https://www.youtube.com/embed/2iUT9bsFqok;true;system;2019-02-25 00:00:00.000;system
348;Farm Frenzy Pizza Party only GOLD Goat Street 2 (level 25) Веселая ферма Печем пиццу Козья 2 Золото;Farm Frenzy Pizza Party only GOLD Goat Street 2 (level 25) Веселая ферма Печем пиццу Козья 2 Золото;https://www.youtube.com/embed/Gy0BP4q8DTI;true;system;2019-02-25 00:00:00.000;system
349;Чужие: Командная атака играть бесплатно;Чужие: Командная атака играть бесплатно;https://www.youtube.com/embed/9S94LLqh3aQ;true;system;2019-02-25 00:00:00.000;system
350;Атака чужих или ПОЛИЦЕЙСКИЙ КОНТРОЛЬ;Атака чужих или ПОЛИЦЕЙСКИЙ КОНТРОЛЬ;https://www.youtube.com/embed/kVuW2yBXhYI;true;system;2019-02-25 00:00:00.000;system
351;Погрузчик 2 Уровни 1-30 Прохождение | TRUCK LOADER 2 Levels 1-30 Walkthrough;Погрузчик 2 Уровни 1-30 Прохождение | TRUCK LOADER 2 Levels 1-30 Walkthrough;https://www.youtube.com/embed/0kRRj5YQTAg;true;system;2019-02-25 00:00:00.000;system
352;Truck Loader 2 Игра Погрузчик 2 1-10 уровень Мульткомпания;Truck Loader 2 Игра Погрузчик 2 1-10 уровень Мульткомпания;https://www.youtube.com/embed/WWmI122yerQ;true;system;2019-02-25 00:00:00.000;system
353;ВЗРЫВ ПЛАЗМЫ - ВПЕРЁД В ПРОШЛОЕ ◄► Plazma Burst: Forward to the Past #1;ВЗРЫВ ПЛАЗМЫ - ВПЕРЁД В ПРОШЛОЕ ◄► Plazma Burst: Forward to the Past #1;https://www.youtube.com/embed/yhNv1ycGwrE;true;system;2019-02-25 00:00:00.000;system
354;взрыв плазмы 1 часть #2 сделал 3 4 уровень;взрыв плазмы 1 часть #2 сделал 3 4 уровень;https://www.youtube.com/embed/5FRAGZ9biko;true;system;2019-02-25 00:00:00.000;system
355;прохождение взрыв плазмы 2 на официальном сайте;прохождение взрыв плазмы 2 на официальном сайте;https://www.youtube.com/embed/IytDSLtgDKY;true;system;2019-02-25 00:00:00.000;system
356;Прохождения игры взрыв плазмы 2 (Plazma Burst 2);Прохождения игры взрыв плазмы 2 (Plazma Burst 2);https://www.youtube.com/embed/a0NJiFyv9Ok;true;system;2019-02-25 00:00:00.000;system
357;Игра Боевые механизмы онлайн;Игра Боевые механизмы онлайн;https://www.youtube.com/embed/Yw0_Ql-neck;true;system;2019-02-25 00:00:00.000;system
358;игра войны муравьев вконтакте;игра войны муравьев вконтакте;https://www.youtube.com/embed/De4JRMSKVqo;true;system;2019-02-25 00:00:00.000;system
359;#2 Ants Warriors / Война Муравьев;#2 Ants Warriors / Война Муравьев;https://www.youtube.com/embed/g1Gk0OI06gA;true;system;2019-02-25 00:00:00.000;system
360;Империя Аркея - Empires of Arkeia;Империя Аркея - Empires of Arkeia;https://www.youtube.com/embed/cB-9ExyS7JQ;true;system;2019-02-25 00:00:00.000;system
361;Flash игра Эпическая Война 3|Epic War 3;Flash игра Эпическая Война 3|Epic War 3;https://www.youtube.com/embed/JeoVwoGEyvw;true;system;2019-02-25 00:00:00.000;system
362;Spongebob Switch Puzzle (Губка Боб пазлы онлайн) - прохождение игры;Spongebob Switch Puzzle (Губка Боб пазлы онлайн) - прохождение игры;https://www.youtube.com/embed/spgBL2yIdvs;true;system;2019-02-25 00:00:00.000;system
363;Doodle jump прохождение 😈;Doodle jump прохождение 😈;https://www.youtube.com/embed/EqjLLQ8SGmI;true;system;2019-02-25 00:00:00.000;system
364;Маша и Медведь Прохождение игры: развивающие задания для малышей полная версия;Маша и Медведь Прохождение игры: развивающие задания для малышей полная версия;https://www.youtube.com/embed/q5LKTyhqUuQ;true;system;2019-02-25 00:00:00.000;system
365;Полное прохождение игры Маша и медведь догонялки;Полное прохождение игры Маша и медведь догонялки;https://www.youtube.com/embed/x6Z7yQQ8hHA;true;system;2019-02-25 00:00:00.000;system
366;Игра Джульетта Урок Пианино;Игра Джульетта Урок Пианино;https://www.youtube.com/embed/6jbW15_-MXA;true;system;2019-02-25 00:00:00.000;system
367;The Piano прохождение игры на русском #1 ИСТОРИЯ ОДНОЙ СЕМЬИ;The Piano прохождение игры на русском #1 ИСТОРИЯ ОДНОЙ СЕМЬИ;https://www.youtube.com/embed/byTSnwql87E;true;system;2019-02-25 00:00:00.000;system
368;Обзор игры Мой Ам Ням (My Om Nom) - часть 1;Обзор игры Мой Ам Ням (My Om Nom) - часть 1;https://www.youtube.com/embed/l8ZPwTzWYwE;true;system;2019-02-25 00:00:00.000;system
369;Обзор игры Мой Ам Ням (My Om Nom) - часть 2;Обзор игры Мой Ам Ням (My Om Nom) - часть 2;https://www.youtube.com/embed/lRpV2dW2E7A;true;system;2019-02-25 00:00:00.000;system
370;Мой Ам Ням (My Om Nom) Тамагочи;Мой Ам Ням (My Om Nom) Тамагочи;https://www.youtube.com/embed/BISCJwas93Y;true;system;2019-02-25 00:00:00.000;system
371;Мультик игра Барби ходит по магазинам (Barbie Shop Till You Drop);Мультик игра Барби ходит по магазинам (Barbie Shop Till You Drop);https://www.youtube.com/embed/5AMvjGldhJ8;true;system;2019-02-25 00:00:00.000;system
372;Флеш игра Овцы идут домой;Флеш игра Овцы идут домой;https://www.youtube.com/embed/wk_zua3OWoo;true;system;2019-02-25 00:00:00.000;system
373;Онлайн игра Овечки идут домой - геймплей;Онлайн игра Овечки идут домой - геймплей;https://www.youtube.com/embed/ZRvQUOO8g28;true;system;2019-02-25 00:00:00.000;system
374;Music Wars (вконтакте) #1;Music Wars (вконтакте) #1;https://www.youtube.com/embed/gCIWHfw1w-w;true;system;2019-02-25 00:00:00.000;system
375;Music wars. Прохождение всей Атомки Горшком);Music wars. Прохождение всей Атомки Горшком);https://www.youtube.com/embed/PHbpnfkczU8;true;system;2019-02-25 00:00:00.000;system
376;1 Место Башня Music Wars Мега проход;1 Место Башня Music Wars Мега проход;https://www.youtube.com/embed/bBy75awF3RE;true;system;2019-02-25 00:00:00.000;system
377;Escape for a Music Concert Game Walkthrough;Escape for a Music Concert Game Walkthrough;https://www.youtube.com/embed/7z61NXIeO0Q;true;system;2019-02-25 00:00:00.000;system
378;Мой том космическое пианино 578 рекорд;Мой том космическое пианино 578 рекорд;https://www.youtube.com/embed/9c3qABLIBis;true;system;2019-02-25 00:00:00.000;system
379;Чудо ферма - Прохождение - Серия №1;Чудо ферма - Прохождение - Серия №1;https://www.youtube.com/embed/59D6jsQp_4E;true;system;2019-02-25 00:00:00.000;system
380;Чудо ферма 2 - Полная версия;Чудо ферма 2 - Полная версия;https://www.youtube.com/embed/LrzuDpKDHmI;true;system;2019-02-25 00:00:00.000;system
381;Пиксельные Раскраски / Pixel Coloring Pages;Пиксельные Раскраски / Pixel Coloring Pages;https://www.youtube.com/embed/_Z6DZNx9Lsk;true;system;2019-02-25 00:00:00.000;system
382;Игра электрическая коробка онлайн;Игра электрическая коробка онлайн;https://www.youtube.com/embed/_ce9ZrA3Coo;true;system;2019-02-25 00:00:00.000;system
383;DuckLife (Жизнь утки) #1;DuckLife (Жизнь утки) #1;https://www.youtube.com/embed/k2BjCexNeFM;true;system;2019-02-25 00:00:00.000;system
384;ЭВОЛЮЦИЯ УТКИ В ЧЕЛОВЕКА! - Duck Life 3 Evolution;ЭВОЛЮЦИЯ УТКИ В ЧЕЛОВЕКА! - Duck Life 3 Evolution;https://www.youtube.com/embed/pkBd1V-ETbg;true;system;2019-02-25 00:00:00.000;system
385;ЖИЗНЬ УТЯТ КАЧКОВ! - Duck Life Battle;ЖИЗНЬ УТЯТ КАЧКОВ! - Duck Life Battle;https://www.youtube.com/embed/2MxIHAf4OLk;true;system;2019-02-25 00:00:00.000;system
386;Герои мифов: Воины Богов (Heroes of Myths: Warriors of Gods) // Геймплей;Герои мифов: Воины Богов (Heroes of Myths: Warriors of Gods) // Геймплей;https://www.youtube.com/embed/3ChrZT9jGsU&vl=ru;true;system;2019-02-25 00:00:00.000;system
387;Обзор и прохождение флешки-Герои Мифов: Воины Богов!;Обзор и прохождение флешки-Герои Мифов: Воины Богов!;https://www.youtube.com/embed/EGmHhGEpcvI;true;system;2019-02-25 00:00:00.000;system
388;Игра Эпическая война 4;Игра Эпическая война 4;https://www.youtube.com/embed/GrSZ7T9ieq0;true;system;2019-02-25 00:00:00.000;system
389;БолтушкА и ПРоХоДиМеЦ Развивают Свой КУРЯТНИК! #193 Игра для Детей - Эпическое кудахтанье;БолтушкА и ПРоХоДиМеЦ Развивают Свой КУРЯТНИК! #193 Игра для Детей - Эпическое кудахтанье;https://www.youtube.com/embed/khCLDinzDrE;true;system;2019-02-25 00:00:00.000;system
390;БолтушкА и ПРоХоДиМеЦ Открывают Новых КУРОЧЕК! #212 Игра для Детей - Эпическое кудахтанье;БолтушкА и ПРоХоДиМеЦ Открывают Новых КУРОЧЕК! #212 Игра для Детей - Эпическое кудахтанье;https://www.youtube.com/embed/tLrfBqpkZz8;true;system;2019-02-25 00:00:00.000;system
391;0бзор игры Epic Cluck 9часть;0бзор игры Epic Cluck 9часть;https://www.youtube.com/embed/R-PECDsi3o0;true;system;2019-02-25 00:00:00.000;system
392;!!! ПРОХОЖДЕНИЕ ИГРЫ СЛИЗАРИО!!!!!!!!!!!!!!#1;!!! ПРОХОЖДЕНИЕ ИГРЫ СЛИЗАРИО!!!!!!!!!!!!!!#1;https://www.youtube.com/embed/Fg4DSMlj56I;true;system;2019-02-25 00:00:00.000;system
393;Прохождение игры Слизарио;Прохождение игры Слизарио;https://www.youtube.com/embed/NOKYwiWV-l0;true;system;2019-02-25 00:00:00.000;system
394;Прохождение игры слизарио #1;Прохождение игры слизарио #1;https://www.youtube.com/embed/Uk4MHWTKHJQ;true;system;2019-02-25 00:00:00.000;system
395;Вормакс Прохождение игры Wormax.io Часть 3;Вормакс Прохождение игры Wormax.io Часть 3;https://www.youtube.com/embed/z-9XaHNE4PA;true;system;2019-02-25 00:00:00.000;system
396;Вормакс Прохождение игры Wormax.io Часть 3;Вормакс Прохождение игры Wormax.io Часть 3;https://www.youtube.com/embed/z-9XaHNE4PA;true;system;2019-02-25 00:00:00.000;system
397;Вормакс Прохождение игры Wormax.io Часть 2;Вормакс Прохождение игры Wormax.io Часть 2;https://www.youtube.com/embed/LxdYDGpbbyk;true;system;2019-02-25 00:00:00.000;system
398;Вормакс Прохождение игры Wormax.io;Вормакс Прохождение игры Wormax.io;https://www.youtube.com/embed/DFoZvFHpGHk;true;system;2019-02-25 00:00:00.000;system
399;Интиресная игра змея.io;Интиресная игра змея.io;https://www.youtube.com/embed/jIgdpC-TBos;true;system;2019-02-25 00:00:00.000;system
400;Вормейт ио;Вормейт ио;https://www.youtube.com/embed/DxccBLDZiLw;true;system;2019-02-25 00:00:00.000;system
401;червячок;червячок;https://www.youtube.com/embed/YfcbkKcGrWo;true;system;2019-02-25 00:00:00.000;system
402;Прохождение игры 1 часть ножи;Прохождение игры 1 часть ножи;https://www.youtube.com/embed/trpi1JHiPH4;true;system;2019-02-25 00:00:00.000;system
403;ЭВОЛЮЦИЯ НОЖА! - Flip the Knife;ЭВОЛЮЦИЯ НОЖА! - Flip the Knife;https://www.youtube.com/embed/2YMT0agT-FQ;true;system;2019-02-25 00:00:00.000;system
404;Вондер Тут и Там: Руки Помощи;Вондер Тут и Там: Руки Помощи;https://www.youtube.com/embed/D3VFZssEOac;true;system;2019-02-25 00:00:00.000;system
405;Вондер Тут и Там Руки помощи;Вондер Тут и Там Руки помощи;https://www.youtube.com/embed/GJKx9m6N1Do;true;system;2019-02-25 00:00:00.000;system
406;Wander Over Yonder Helping Hands (С приветом по планетам: руки помощи);Wander Over Yonder Helping Hands (С приветом по планетам: руки помощи);https://www.youtube.com/embed/kH3i3hAZfGA;true;system;2019-02-25 00:00:00.000;system
407;С Приветом по Планетам. Акваландия. With greetings on the planet Aqualandia.;С Приветом по Планетам. Акваландия. With greetings on the planet Aqualandia.;https://www.youtube.com/embed/Tvz2PrM49cY;true;system;2019-02-25 00:00:00.000;system
408;Тут и Там Союз злодеев 5. With greetings of planets 5.Прохождение.;Тут и Там Союз злодеев 5. With greetings of planets 5.Прохождение.;https://www.youtube.com/embed/_lH5sjsGrrU;true;system;2019-02-25 00:00:00.000;system
409;Галактическое Спасение. С приветом по планетам. With greetings of planets. Эпизод.;Галактическое Спасение. С приветом по планетам. With greetings of planets. Эпизод.;https://www.youtube.com/embed/DoRDIVNfVoA;true;system;2019-02-25 00:00:00.000;system
410;Wander Over Yonder Games The Galactic Rescue (С приветом по планетам: Галактическое спасение);Wander Over Yonder Games The Galactic Rescue (С приветом по планетам: Галактическое спасение);https://www.youtube.com/embed/3RjobFNef2A;true;system;2019-02-25 00:00:00.000;system
411;Утиная жизнь 4;Утиная жизнь 4;https://www.youtube.com/embed/eDJywd52S3Y;true;system;2019-02-25 00:00:00.000;system
412;СУРОВЫЕ УТЯТА! - Duck Life 4 - #1;СУРОВЫЕ УТЯТА! - Duck Life 4 - #1;https://www.youtube.com/embed/-EcPUfbKZj8;true;system;2019-02-25 00:00:00.000;system
413;Обзор игры Утиная жизнь 4;Обзор игры Утиная жизнь 4;https://www.youtube.com/embed/wNiNdeN_GMc;true;system;2019-02-25 00:00:00.000;system
414;Duck Life 3 - Evolution. Утиная жизнь 3 - эволюция;Duck Life 3 - Evolution. Утиная жизнь 3 - эволюция;https://www.youtube.com/embed/1qSP79jOtGM;true;system;2019-02-25 00:00:00.000;system
415;Симулятор Утки - Duck Life - Самая дикая утка;Симулятор Утки - Duck Life - Самая дикая утка;https://www.youtube.com/embed/aWvALUHOR5Y;true;system;2019-02-25 00:00:00.000;system
416;Прохождение ducklife - утиная жизнь ◗ УПОРОТАЯ УТОЧКА УЧИТСЯ ЛЕТАТЬ ◗ #1;Прохождение ducklife - утиная жизнь ◗ УПОРОТАЯ УТОЧКА УЧИТСЯ ЛЕТАТЬ ◗ #1;https://www.youtube.com/embed/ZI5QqLKitlw;true;system;2019-02-25 00:00:00.000;system
417;Герои в масках: Липкий футбол (PJ Masks Sticky Splat Soccer);Герои в масках: Липкий футбол (PJ Masks Sticky Splat Soccer);https://www.youtube.com/embed/58u0Pv4PLTI;true;system;2019-02-25 00:00:00.000;system
418;Мультик игра Робокар Поли пазл (Robocar Poli Puzzle);Мультик игра Робокар Поли пазл (Robocar Poli Puzzle);https://www.youtube.com/embed/smytGzaHrEo;true;system;2019-02-25 00:00:00.000;system
419;Игра Раскраска Робокар Полли! РАЗВИВАЮЩИЕ игры для ДЕТЕЙ онлайн! МУЛЬТФИЛЬМ! #игры;Игра Раскраска Робокар Полли! РАЗВИВАЮЩИЕ игры для ДЕТЕЙ онлайн! МУЛЬТФИЛЬМ! #игры;https://www.youtube.com/embed/jafLPv7VSR0;true;system;2019-02-25 00:00:00.000;system
420;Minion Island Adventure (Приключения миньонов) прохождение игры;Minion Island Adventure (Приключения миньонов) прохождение игры;https://www.youtube.com/embed/FVqeOFicVl0;true;system;2019-02-25 00:00:00.000;system
421;Минимон: Приключение Миньонов - Новые приключения;Минимон: Приключение Миньонов - Новые приключения;https://www.youtube.com/embed/KS3dgfHejUU;true;system;2019-02-25 00:00:00.000;system
422;Красная шапочка-новые приключения полное прохождение;Красная шапочка-новые приключения полное прохождение;https://www.youtube.com/embed/E71LKK11r2Q;true;system;2019-02-25 00:00:00.000;system
423;когама гонки на машинках;когама гонки на машинках;https://www.youtube.com/embed/Fvvak7i66FQ;true;system;2019-02-25 00:00:00.000;system
424;когама игра гонки;когама игра гонки;https://www.youtube.com/embed/Lu66700uZvA;true;system;2019-02-25 00:00:00.000;system
425;когама гонки на машинках;когама гонки на машинках;https://www.youtube.com/embed/kG0SoVV7-tk;true;system;2019-02-25 00:00:00.000;system
426;Spongebob Racing Tournament (Губка Боб: гоночный турнир) - прохождение игры;Spongebob Racing Tournament (Губка Боб: гоночный турнир) - прохождение игры;https://www.youtube.com/embed/h3p5DA-m1Ak;true;system;2019-02-25 00:00:00.000;system
427;Spongebob Racing Tournament (Губка Боб: гоночный турнир) - прохождение игры;Spongebob Racing Tournament (Губка Боб: гоночный турнир) - прохождение игры;https://www.youtube.com/embed/68a2SWhUbiM;true;system;2019-02-25 00:00:00.000;system
428;Гонки на тракторе (обзор игры);Гонки на тракторе (обзор игры);https://www.youtube.com/embed/ANdIun-V9Ws;true;system;2019-02-25 00:00:00.000;system
429;Игра Гонки на тракторе;Игра Гонки на тракторе;https://www.youtube.com/embed/tH5-LbXx63A;true;system;2019-02-25 00:00:00.000;system
430;Мультик про тракторы Игры мультики гонки на тракторах Tractors Power 2 Walkthrough;Мультик про тракторы Игры мультики гонки на тракторах Tractors Power 2 Walkthrough;https://www.youtube.com/embed/8ztWqeAvNas;true;system;2019-02-25 00:00:00.000;system
431;игра Робо Гонки приложение в контакте;игра Робо Гонки приложение в контакте;https://www.youtube.com/embed/BnZHkYY2qp0;true;system;2019-02-25 00:00:00.000;system
432;игра Робо Гонки приложение в контакте;игра Робо Гонки приложение в контакте;https://www.youtube.com/embed/BnZHkYY2qp0;true;system;2019-02-25 00:00:00.000;system
433;Гонки роботов по лабиринту. Игра как мультфильм! Race robots through a maze. The game as a cartoon!;Гонки роботов по лабиринту. Игра как мультфильм! Race robots through a maze. The game as a cartoon!;https://www.youtube.com/embed/hqIqO-2pxck;true;system;2019-02-25 00:00:00.000;system
434;MINI RACING ADVENTURES #10 гонки тачки Прохождение игры для детей про машинки kids games about cars;MINI RACING ADVENTURES #10 гонки тачки Прохождение игры для детей про машинки kids games about cars;https://www.youtube.com/embed/KlmuXBoeLFs;true;system;2019-02-25 00:00:00.000;system
435;МИНИ РЕЙСИНГ ГОНКА - мультик игра Mini rasing #1;МИНИ РЕЙСИНГ ГОНКА - мультик игра Mini rasing #1;https://www.youtube.com/embed/-syq2WoVDqE;true;system;2019-02-25 00:00:00.000;system
436;F-1 Race NES - Прохождение (Формула 1 Денди, Dendy - Walkthrough);F-1 Race NES - Прохождение (Формула 1 Денди, Dendy - Walkthrough);https://www.youtube.com/embed/UWlAlqtySI8;true;system;2019-02-25 00:00:00.000;system
437;Прохождение игры американские гонки;Прохождение игры американские гонки;https://www.youtube.com/embed/VZ_pc5colXQ;true;system;2019-02-25 00:00:00.000;system
438;Сладкие гонки детская игра про Машинки - Мороженные гонки Ice Cream Racin #4;Сладкие гонки детская игра про Машинки - Мороженные гонки Ice Cream Racin #4;https://www.youtube.com/embed/U-Hf3V9j7C0;true;system;2019-02-25 00:00:00.000;system
439;игра Сладкая Гонка в контакте;игра Сладкая Гонка в контакте;https://www.youtube.com/embed/7NedqIzePP8;true;system;2019-02-25 00:00:00.000;system
440;Гонки за Мороженым. Мультики игры онлайн про машинки для детей развивающие мультфильмы для детей;Гонки за Мороженым. Мультики игры онлайн про машинки для детей развивающие мультфильмы для детей;https://www.youtube.com/embed/ucGx_JYi4Wo;true;system;2019-02-25 00:00:00.000;system
441;Прохождение игры Неоновые гонки;Прохождение игры Неоновые гонки;https://www.youtube.com/embed/TUoWUdLFvjA;true;system;2019-02-25 00:00:00.000;system
442;Неоновые гонки прохождение | Neon race Walkthrough - GF4Y.COM;Неоновые гонки прохождение | Neon race Walkthrough - GF4Y.COM;https://www.youtube.com/embed/CostGIZk84A;true;system;2019-02-25 00:00:00.000;system
443;Minion Rush Гонки Миньонов Игра на Андроид;Minion Rush Гонки Миньонов Игра на Андроид;https://www.youtube.com/embed/sGA5reDq69E;true;system;2019-02-25 00:00:00.000;system
444;Гонки Бугатти. Мультики про машинки. Машины для детей. Мультики про машины;Гонки Бугатти. Мультики про машинки. Машины для детей. Мультики про машины;https://www.youtube.com/embed/fntrl-h6Rbk;true;system;2019-02-25 00:00:00.000;system
445;3D Moto Simulator (3Д мото симулятор) - прохождение игры;3D Moto Simulator (3Д мото симулятор) - прохождение игры;https://www.youtube.com/embed/ttbtXeFmbqY;true;system;2019-02-25 00:00:00.000;system
446;Симулятор мотоциклов;Симулятор мотоциклов;https://www.youtube.com/embed/gIvbaQQSBCQ;true;system;2019-02-25 00:00:00.000;system
447;Super Sonic Motobike 3 - Walkthrough;Super Sonic Motobike 3 - Walkthrough;https://www.youtube.com/embed/EOUnaIL-njI;true;system;2019-02-25 00:00:00.000;system
448;Обзор игры Bike Race Free [Гонки на Мотоциклах] для iPhone iPad iPod;Обзор игры Bike Race Free [Гонки на Мотоциклах] для iPhone iPad iPod;https://www.youtube.com/embed/8FjCnZuBkL0;true;system;2019-02-25 00:00:00.000;system
449;Видео игры Трюки на мотоцикле;Видео игры Трюки на мотоцикле;https://www.youtube.com/embed/1GVlbvaO4I4;true;system;2019-02-25 00:00:00.000;system
450;Прохождение дёрби. FlatOut 2. Parking Lot derbi;Прохождение дёрби. FlatOut 2. Parking Lot derbi;https://www.youtube.com/embed/GqeZZ1fEM0E;true;system;2019-02-25 00:00:00.000;system
451;Машинки - Машина Шпион Смотреть онлайн\Machines - SPY CAR Watch online;Машинки - Машина Шпион Смотреть онлайн\Machines - SPY CAR Watch online;https://www.youtube.com/embed/jjRI5j_vABo;true;system;2019-02-25 00:00:00.000;system
452;Автомобиль шпион / Spy Car;Автомобиль шпион / Spy Car;https://www.youtube.com/embed/HNVbn6zJtEc;true;system;2019-02-25 00:00:00.000;system
453;игра Автомобильный хаос │ Прохождение │ GamesTV;игра Автомобильный хаос │ Прохождение │ GamesTV;https://www.youtube.com/embed/clHtgJHv-uM;true;system;2019-02-25 00:00:00.000;system
454;Видео игры Парковка машин (parking super skills);Видео игры Парковка машин (parking super skills);https://www.youtube.com/embed/FLtX-oJHlbA;true;system;2019-02-25 00:00:00.000;system
455;Симулятор игрушечной машины (Toy Car Simulator) // Геймплей;Симулятор игрушечной машины (Toy Car Simulator) // Геймплей;https://www.youtube.com/embed/CIUXE2FRQ9Q;true;system;2019-02-25 00:00:00.000;system
456;CAR EATS CAR 6 - ПРОХОЖДЕНИЕ ИГРЫ МАШИНА ЕСТ МАШИНУ - 1 СЕРИЯ;CAR EATS CAR 6 - ПРОХОЖДЕНИЕ ИГРЫ МАШИНА ЕСТ МАШИНУ - 1 СЕРИЯ;https://www.youtube.com/embed/8ub8um5rq5E;true;system;2019-02-25 00:00:00.000;system
457;Car Eats Car 6 Машина ест машину / Хищные машины #39 про машинки как мультик игра в Drive Ahead #МК;Car Eats Car 6 Машина ест машину / Хищные машины #39 про машинки как мультик игра в Drive Ahead #МК;https://www.youtube.com/embed/agJxLNQ3tU0;true;system;2019-02-25 00:00:00.000;system
458;ПОЛНОЕ ПРОХОЖДЕНИЕ игры Car Eats Car 6 Машина ест машину Хищные машины про машинки как мультик;ПОЛНОЕ ПРОХОЖДЕНИЕ игры Car Eats Car 6 Машина ест машину Хищные машины про машинки как мультик;https://www.youtube.com/embed/qo7OP0QWgsA&vl=ru;true;system;2019-02-25 00:00:00.000;system
459;Ben 10 atv 3D;Ben 10 atv 3D;https://www.youtube.com/embed/wtlhq4J6HEY;true;system;2019-02-25 00:00:00.000;system
460;НЕВОЗМОЖНЫЕ ГОНКИ C BUGATTI CHIRON! (GTA 5 Смешные Моменты);НЕВОЗМОЖНЫЕ ГОНКИ C BUGATTI CHIRON! (GTA 5 Смешные Моменты);https://www.youtube.com/embed/UadzvbXxA4M;true;system;2019-02-25 00:00:00.000;system
461;Rally Racer (Ралли гонки) - прохождение игры;Rally Racer (Ралли гонки) - прохождение игры;https://www.youtube.com/embed/eteYIfvJpJk;true;system;2019-02-25 00:00:00.000;system
462;Turbo Rally Full Walkthrough Gameplay;Turbo Rally Full Walkthrough Gameplay;https://www.youtube.com/embed/5QqkjWINkNM;true;system;2019-02-25 00:00:00.000;system
463;Супер ралли 3D. Гонки. Онлайн игра. Kids games.;Супер ралли 3D. Гонки. Онлайн игра. Kids games.;https://www.youtube.com/embed/TEeK8fX6Im8;true;system;2019-02-25 00:00:00.000;system
464;Супер ралли 3Д. Машинки. Мультики про машины. Мультики для детей;Супер ралли 3Д. Машинки. Мультики про машины. Мультики для детей;https://www.youtube.com/embed/Mkr4Vn1GkLM;true;system;2019-02-25 00:00:00.000;system
465;Игра монстер трак Monster truck;Игра монстер трак Monster truck;https://www.youtube.com/embed/3sYg_Dbbuqc;true;system;2019-02-25 00:00:00.000;system
466;Super Rally Extreme Full Gameplay Walkthrough;Super Rally Extreme Full Gameplay Walkthrough;https://www.youtube.com/embed/-jWRio09JaQ;true;system;2019-02-25 00:00:00.000;system
467;Ultimate Car Racing | Android Gameplay Extreme Racing;Ultimate Car Racing | Android Gameplay Extreme Racing;https://www.youtube.com/embed/la-lv2jXMsY;true;system;2019-02-25 00:00:00.000;system
468;DiRT Rally (60 fps) - Дождь, грязь, BMW #3;DiRT Rally (60 fps) - Дождь, грязь, BMW #3;https://www.youtube.com/embed/N1s4Z1hKAIE;true;system;2019-02-25 00:00:00.000;system
469;Прохождение игры Асфальт 4: Элитные Гонки - Беверли-Хиллз (Дуэль);Прохождение игры Асфальт 4: Элитные Гонки - Беверли-Хиллз (Дуэль);https://www.youtube.com/embed/jw6kbjSnCyg;true;system;2019-02-25 00:00:00.000;system
470;Прохождение игры Настольные гонки 2;Прохождение игры Настольные гонки 2;https://www.youtube.com/embed/rBIH3D49z0M&vl=ru;true;system;2019-02-25 00:00:00.000;system
471;ГОНКИ НА ГИДРОЦИКЛАХ #1 Крутая игра мультик для детей про гонки. Riptide GP Renegade;ГОНКИ НА ГИДРОЦИКЛАХ #1 Крутая игра мультик для детей про гонки. Riptide GP Renegade;https://www.youtube.com/embed/UaThj01fw4Y&vl=d;true;system;2019-02-25 00:00:00.000;system